%!PS-Adobe-3.0 EPSF-3.0
%%Title: /home/david/Documents/Research_Report/gfx/avoidance_grn_early.eps
%%Creator: matplotlib version 1.3.1, http://matplotlib.org/
%%CreationDate: Tue Aug 11 20:52:18 2015
%%Orientation: portrait
%%BoundingBox: -202 31 814 760
%%EndComments
%%BeginProlog
/mpldict 8 dict def
mpldict begin
/m { moveto } bind def
/l { lineto } bind def
/r { rlineto } bind def
/c { curveto } bind def
/cl { closepath } bind def
/box {
m
1 index 0 r
0 exch r
neg 0 r
cl
} bind def
/clipbox {
box
clip
newpath
} bind def
%!PS-Adobe-3.0 Resource-Font
%%Title: DejaVu Sans
%%Copyright: Copyright (c) 2003 by Bitstream, Inc. All Rights Reserved. Copyright (c) 2006 by Tavmjong Bah. All Rights Reserved. DejaVu changes are in public domain 
%%Creator: Converted from TrueType to type 3 by PPR
25 dict begin
/_d{bind def}bind def
/_m{moveto}_d
/_l{lineto}_d
/_cl{closepath eofill}_d
/_c{curveto}_d
/_sc{7 -1 roll{setcachedevice}{pop pop pop pop pop pop}ifelse}_d
/_e{exec}_d
/FontName /DejaVuSans def
/PaintType 0 def
/FontMatrix[.001 0 0 .001 0 0]def
/FontBBox[-1021 -415 1681 1167]def
/FontType 3 def
/Encoding [ /zero /one /two /three /four /five /six /seven /eight /F /G /a /e /g /i /m /n /o /r /s /t /u /v /x ] def
/FontInfo 10 dict dup begin
/FamilyName (DejaVu Sans) def
/FullName (DejaVu Sans) def
/Notice (Copyright (c) 2003 by Bitstream, Inc. All Rights Reserved. Copyright (c) 2006 by Tavmjong Bah. All Rights Reserved. DejaVu changes are in public domain ) def
/Weight (Book) def
/Version (Version 2.34) def
/ItalicAngle 0.0 def
/isFixedPitch false def
/UnderlinePosition -130 def
/UnderlineThickness 90 def
end readonly def
/CharStrings 24 dict dup begin
/zero{636 0 66 -13 570 742 _sc
318 664 _m
267 664 229 639 203 589 _c
177 539 165 464 165 364 _c
165 264 177 189 203 139 _c
229 89 267 64 318 64 _c
369 64 407 89 433 139 _c
458 189 471 264 471 364 _c
471 464 458 539 433 589 _c
407 639 369 664 318 664 _c
318 742 _m
399 742 461 709 505 645 _c
548 580 570 486 570 364 _c
570 241 548 147 505 83 _c
461 19 399 -13 318 -13 _c
236 -13 173 19 130 83 _c
87 147 66 241 66 364 _c
66 486 87 580 130 645 _c
173 709 236 742 318 742 _c
_cl}_d
/one{636 0 110 0 544 729 _sc
124 83 _m
285 83 _l
285 639 _l
110 604 _l
110 694 _l
284 729 _l
383 729 _l
383 83 _l
544 83 _l
544 0 _l
124 0 _l
124 83 _l
_cl}_d
/two{{636 0 73 0 536 742 _sc
192 83 _m
536 83 _l
536 0 _l
73 0 _l
73 83 _l
110 121 161 173 226 239 _c
290 304 331 346 348 365 _c
380 400 402 430 414 455 _c
426 479 433 504 433 528 _c
433 566 419 598 392 622 _c
365 646 330 659 286 659 _c
255 659 222 653 188 643 _c
154 632 117 616 78 594 _c
78 694 _l
118 710 155 722 189 730 _c
223 738 255 742 284 742 _c
}_e{359 742 419 723 464 685 _c
509 647 532 597 532 534 _c
532 504 526 475 515 449 _c
504 422 484 390 454 354 _c
446 344 420 317 376 272 _c
332 227 271 164 192 83 _c
_cl}_e}_d
/three{{636 0 76 -13 556 742 _sc
406 393 _m
453 383 490 362 516 330 _c
542 298 556 258 556 212 _c
556 140 531 84 482 45 _c
432 6 362 -13 271 -13 _c
240 -13 208 -10 176 -4 _c
144 1 110 10 76 22 _c
76 117 _l
103 101 133 89 166 81 _c
198 73 232 69 268 69 _c
330 69 377 81 409 105 _c
441 129 458 165 458 212 _c
458 254 443 288 413 312 _c
383 336 341 349 287 349 _c
}_e{202 349 _l
202 430 _l
291 430 _l
339 430 376 439 402 459 _c
428 478 441 506 441 543 _c
441 580 427 609 401 629 _c
374 649 336 659 287 659 _c
260 659 231 656 200 650 _c
169 644 135 635 98 623 _c
98 711 _l
135 721 170 729 203 734 _c
235 739 266 742 296 742 _c
370 742 429 725 473 691 _c
517 657 539 611 539 553 _c
539 513 527 479 504 451 _c
481 423 448 403 406 393 _c
_cl}_e}_d
/four{636 0 49 0 580 729 _sc
378 643 _m
129 254 _l
378 254 _l
378 643 _l
352 729 _m
476 729 _l
476 254 _l
580 254 _l
580 172 _l
476 172 _l
476 0 _l
378 0 _l
378 172 _l
49 172 _l
49 267 _l
352 729 _l
_cl}_d
/five{{636 0 77 -13 549 729 _sc
108 729 _m
495 729 _l
495 646 _l
198 646 _l
198 467 _l
212 472 227 476 241 478 _c
255 480 270 482 284 482 _c
365 482 429 459 477 415 _c
525 370 549 310 549 234 _c
549 155 524 94 475 51 _c
426 8 357 -13 269 -13 _c
238 -13 207 -10 175 -6 _c
143 -1 111 6 77 17 _c
77 116 _l
106 100 136 88 168 80 _c
199 72 232 69 267 69 _c
}_e{323 69 368 83 401 113 _c
433 143 450 183 450 234 _c
450 284 433 324 401 354 _c
368 384 323 399 267 399 _c
241 399 214 396 188 390 _c
162 384 135 375 108 363 _c
108 729 _l
_cl}_e}_d
/six{{636 0 70 -13 573 742 _sc
330 404 _m
286 404 251 388 225 358 _c
199 328 186 286 186 234 _c
186 181 199 139 225 109 _c
251 79 286 64 330 64 _c
374 64 409 79 435 109 _c
461 139 474 181 474 234 _c
474 286 461 328 435 358 _c
409 388 374 404 330 404 _c
526 713 _m
526 623 _l
501 635 476 644 451 650 _c
425 656 400 659 376 659 _c
310 659 260 637 226 593 _c
}_e{192 549 172 482 168 394 _c
187 422 211 444 240 459 _c
269 474 301 482 336 482 _c
409 482 467 459 509 415 _c
551 371 573 310 573 234 _c
573 159 550 99 506 54 _c
462 9 403 -13 330 -13 _c
246 -13 181 19 137 83 _c
92 147 70 241 70 364 _c
70 479 97 571 152 639 _c
206 707 280 742 372 742 _c
396 742 421 739 447 735 _c
472 730 498 723 526 713 _c
_cl}_e}_d
/seven{636 0 82 0 551 729 _sc
82 729 _m
551 729 _l
551 687 _l
286 0 _l
183 0 _l
432 646 _l
82 646 _l
82 729 _l
_cl}_d
/eight{{636 0 68 -13 568 742 _sc
318 346 _m
271 346 234 333 207 308 _c
180 283 167 249 167 205 _c
167 161 180 126 207 101 _c
234 76 271 64 318 64 _c
364 64 401 76 428 102 _c
455 127 469 161 469 205 _c
469 249 455 283 429 308 _c
402 333 365 346 318 346 _c
219 388 _m
177 398 144 418 120 447 _c
96 476 85 511 85 553 _c
85 611 105 657 147 691 _c
188 725 245 742 318 742 _c
}_e{390 742 447 725 489 691 _c
530 657 551 611 551 553 _c
551 511 539 476 515 447 _c
491 418 459 398 417 388 _c
464 377 501 355 528 323 _c
554 291 568 251 568 205 _c
568 134 546 80 503 43 _c
459 5 398 -13 318 -13 _c
237 -13 175 5 132 43 _c
89 80 68 134 68 205 _c
68 251 81 291 108 323 _c
134 355 171 377 219 388 _c
183 544 _m
183 506 194 476 218 455 _c
}_e{242 434 275 424 318 424 _c
360 424 393 434 417 455 _c
441 476 453 506 453 544 _c
453 582 441 611 417 632 _c
393 653 360 664 318 664 _c
275 664 242 653 218 632 _c
194 611 183 582 183 544 _c
_cl}_e}_d
/F{575 0 98 0 517 729 _sc
98 729 _m
517 729 _l
517 646 _l
197 646 _l
197 431 _l
486 431 _l
486 348 _l
197 348 _l
197 0 _l
98 0 _l
98 729 _l
_cl}_d
/G{{775 0 56 -13 693 742 _sc
595 104 _m
595 300 _l
434 300 _l
434 381 _l
693 381 _l
693 68 _l
655 40 613 20 567 7 _c
521 -6 472 -13 420 -13 _c
306 -13 216 20 152 86 _c
88 152 56 245 56 364 _c
56 482 88 575 152 642 _c
216 708 306 742 420 742 _c
467 742 512 736 555 724 _c
598 712 638 695 674 673 _c
674 568 _l
637 598 598 621 557 637 _c
516 653 473 661 428 661 _c
}_e{338 661 271 636 227 586 _c
182 536 160 462 160 364 _c
160 265 182 191 227 141 _c
271 91 338 67 428 67 _c
462 67 493 70 521 76 _c
549 82 573 91 595 104 _c
_cl}_e}_d
/a{{613 0 60 -13 522 560 _sc
343 275 _m
270 275 220 266 192 250 _c
164 233 150 205 150 165 _c
150 133 160 107 181 89 _c
202 70 231 61 267 61 _c
317 61 357 78 387 114 _c
417 149 432 196 432 255 _c
432 275 _l
343 275 _l
522 312 _m
522 0 _l
432 0 _l
432 83 _l
411 49 385 25 355 10 _c
325 -5 287 -13 243 -13 _c
187 -13 142 2 109 33 _c
76 64 60 106 60 159 _c
}_e{60 220 80 266 122 298 _c
163 329 224 345 306 345 _c
432 345 _l
432 354 _l
432 395 418 427 391 450 _c
364 472 326 484 277 484 _c
245 484 215 480 185 472 _c
155 464 127 453 100 439 _c
100 522 _l
132 534 164 544 195 550 _c
226 556 256 560 286 560 _c
365 560 424 539 463 498 _c
502 457 522 395 522 312 _c
_cl}_e}_d
/e{{615 0 55 -13 562 560 _sc
562 296 _m
562 252 _l
149 252 _l
153 190 171 142 205 110 _c
238 78 284 62 344 62 _c
378 62 412 66 444 74 _c
476 82 509 95 541 113 _c
541 28 _l
509 14 476 3 442 -3 _c
408 -9 373 -13 339 -13 _c
251 -13 182 12 131 62 _c
80 112 55 181 55 268 _c
55 357 79 428 127 481 _c
175 533 241 560 323 560 _c
397 560 455 536 498 489 _c
}_e{540 441 562 377 562 296 _c
472 322 _m
471 371 457 410 431 440 _c
404 469 368 484 324 484 _c
274 484 234 469 204 441 _c
174 413 156 373 152 322 _c
472 322 _l
_cl}_e}_d
/g{{635 0 55 -207 544 560 _sc
454 280 _m
454 344 440 395 414 431 _c
387 467 349 485 301 485 _c
253 485 215 467 188 431 _c
161 395 148 344 148 280 _c
148 215 161 165 188 129 _c
215 93 253 75 301 75 _c
349 75 387 93 414 129 _c
440 165 454 215 454 280 _c
544 68 _m
544 -24 523 -93 482 -139 _c
440 -184 377 -207 292 -207 _c
260 -207 231 -204 203 -200 _c
175 -195 147 -188 121 -178 _c
}_e{121 -91 _l
147 -105 173 -115 199 -122 _c
225 -129 251 -133 278 -133 _c
336 -133 380 -117 410 -87 _c
439 -56 454 -10 454 52 _c
454 96 _l
435 64 411 40 382 24 _c
353 8 319 0 279 0 _c
211 0 157 25 116 76 _c
75 127 55 195 55 280 _c
55 364 75 432 116 483 _c
157 534 211 560 279 560 _c
319 560 353 552 382 536 _c
411 520 435 496 454 464 _c
454 547 _l
544 547 _l
}_e{544 68 _l
_cl}_e}_d
/i{278 0 94 0 184 760 _sc
94 547 _m
184 547 _l
184 0 _l
94 0 _l
94 547 _l
94 760 _m
184 760 _l
184 646 _l
94 646 _l
94 760 _l
_cl}_d
/m{{974 0 91 0 889 560 _sc
520 442 _m
542 482 569 511 600 531 _c
631 550 668 560 711 560 _c
767 560 811 540 842 500 _c
873 460 889 403 889 330 _c
889 0 _l
799 0 _l
799 327 _l
799 379 789 418 771 444 _c
752 469 724 482 686 482 _c
639 482 602 466 575 435 _c
548 404 535 362 535 309 _c
535 0 _l
445 0 _l
445 327 _l
445 379 435 418 417 444 _c
398 469 369 482 331 482 _c
}_e{285 482 248 466 221 435 _c
194 404 181 362 181 309 _c
181 0 _l
91 0 _l
91 547 _l
181 547 _l
181 462 _l
201 495 226 520 255 536 _c
283 552 317 560 357 560 _c
397 560 430 550 458 530 _c
486 510 506 480 520 442 _c
_cl}_e}_d
/n{634 0 91 0 549 560 _sc
549 330 _m
549 0 _l
459 0 _l
459 327 _l
459 379 448 417 428 443 _c
408 469 378 482 338 482 _c
289 482 251 466 223 435 _c
195 404 181 362 181 309 _c
181 0 _l
91 0 _l
91 547 _l
181 547 _l
181 462 _l
202 494 227 519 257 535 _c
286 551 320 560 358 560 _c
420 560 468 540 500 501 _c
532 462 549 405 549 330 _c
_cl}_d
/o{612 0 55 -13 557 560 _sc
306 484 _m
258 484 220 465 192 427 _c
164 389 150 338 150 273 _c
150 207 163 156 191 118 _c
219 80 257 62 306 62 _c
354 62 392 80 420 118 _c
448 156 462 207 462 273 _c
462 337 448 389 420 427 _c
392 465 354 484 306 484 _c
306 560 _m
384 560 445 534 490 484 _c
534 433 557 363 557 273 _c
557 183 534 113 490 63 _c
445 12 384 -13 306 -13 _c
227 -13 165 12 121 63 _c
77 113 55 183 55 273 _c
55 363 77 433 121 484 _c
165 534 227 560 306 560 _c
_cl}_d
/r{411 0 91 0 411 560 _sc
411 463 _m
401 469 390 473 378 476 _c
366 478 353 480 339 480 _c
288 480 249 463 222 430 _c
194 397 181 350 181 288 _c
181 0 _l
91 0 _l
91 547 _l
181 547 _l
181 462 _l
199 495 224 520 254 536 _c
284 552 321 560 365 560 _c
371 560 378 559 386 559 _c
393 558 401 557 411 555 _c
411 463 _l
_cl}_d
/s{{521 0 54 -13 472 560 _sc
443 531 _m
443 446 _l
417 458 391 468 364 475 _c
336 481 308 485 279 485 _c
234 485 200 478 178 464 _c
156 450 145 430 145 403 _c
145 382 153 366 169 354 _c
185 342 217 330 265 320 _c
296 313 _l
360 299 405 279 432 255 _c
458 230 472 195 472 151 _c
472 100 452 60 412 31 _c
372 1 316 -13 246 -13 _c
216 -13 186 -10 154 -5 _c
}_e{122 0 89 8 54 20 _c
54 113 _l
87 95 120 82 152 74 _c
184 65 216 61 248 61 _c
290 61 323 68 346 82 _c
368 96 380 117 380 144 _c
380 168 371 187 355 200 _c
339 213 303 226 247 238 _c
216 245 _l
160 257 119 275 95 299 _c
70 323 58 356 58 399 _c
58 450 76 490 112 518 _c
148 546 200 560 268 560 _c
301 560 332 557 362 552 _c
391 547 418 540 443 531 _c
}_e{_cl}_e}_d
/t{392 0 27 0 368 702 _sc
183 702 _m
183 547 _l
368 547 _l
368 477 _l
183 477 _l
183 180 _l
183 135 189 106 201 94 _c
213 81 238 75 276 75 _c
368 75 _l
368 0 _l
276 0 _l
206 0 158 13 132 39 _c
106 65 93 112 93 180 _c
93 477 _l
27 477 _l
27 547 _l
93 547 _l
93 702 _l
183 702 _l
_cl}_d
/u{634 0 85 -13 543 560 _sc
85 216 _m
85 547 _l
175 547 _l
175 219 _l
175 167 185 129 205 103 _c
225 77 255 64 296 64 _c
344 64 383 79 411 110 _c
439 141 453 183 453 237 _c
453 547 _l
543 547 _l
543 0 _l
453 0 _l
453 84 _l
431 50 405 26 377 10 _c
348 -5 315 -13 277 -13 _c
214 -13 166 6 134 45 _c
101 83 85 140 85 216 _c
311 560 _m
311 560 _l
_cl}_d
/v{592 0 30 0 562 547 _sc
30 547 _m
125 547 _l
296 88 _l
467 547 _l
562 547 _l
357 0 _l
235 0 _l
30 547 _l
_cl}_d
/x{592 0 29 0 559 547 _sc
549 547 _m
351 281 _l
559 0 _l
453 0 _l
294 215 _l
135 0 _l
29 0 _l
241 286 _l
47 547 _l
153 547 _l
298 352 _l
443 547 _l
549 547 _l
_cl}_d
end readonly def

/BuildGlyph
 {exch begin
 CharStrings exch
 2 copy known not{pop /.notdef}if
 true 3 1 roll get exec
 end}_d

/BuildChar {
 1 index /Encoding get exch get
 1 index /BuildGlyph get exec
}_d

FontName currentdict end definefont pop
end
%%EndProlog
mpldict begin
-202.5 31.5 translate
1017 729 0 0 clipbox
gsave
0 0 m
1017 0 l
1017 729 l
0 729 l
cl
1.000 setgray
fill
grestore
gsave
127.125 72.9 m
915.3 72.9 l
915.3 656.1 l
127.125 656.1 l
cl
1.000 setgray
fill
grestore
1.000 setlinewidth
1 setlinejoin
2 setlinecap
[] 0 setdash
0.000 setgray
gsave
788.2 583.2 127.1 72.9 clipbox
127.125 239.869 m
129.095 242.039 l
130.081 244.308 l
131.066 244.97 l
132.051 246.19 l
133.036 248.039 l
135.007 251.318 l
135.992 254.161 l
136.977 257.449 l
137.962 259.07 l
140.918 266.899 l
141.903 268.845 l
146.829 280.659 l
147.815 282.792 l
148.8 283.832 l
149.785 285.96 l
150.77 288.845 l
151.755 290.562 l
153.726 295.426 l
154.711 296.635 l
155.696 297.339 l
156.682 299.194 l
157.667 301.694 l
158.652 302.575 l
163.578 308.718 l
164.563 309.916 l
165.549 310.591 l
166.534 312.108 l
167.519 313.245 l
168.504 314.61 l
169.489 316.567 l
170.475 317.424 l
171.46 318.745 l
172.445 319.722 l
174.416 322.157 l
175.401 323.56 l
176.386 324.311 l
178.356 326.241 l
179.342 326.848 l
180.327 328.084 l
181.312 328.585 l
182.297 329.516 l
183.282 330.625 l
184.268 331.287 l
185.253 331.623 l
186.238 332.964 l
188.209 334.153 l
189.194 335.147 l
191.164 336.302 l
192.149 336.527 l
193.135 337.081 l
194.12 338.167 l
195.105 338.348 l
197.076 339.23 l
198.061 339.756 l
199.046 340.133 l
200.031 340.33 l
202.002 341.215 l
203.972 341.833 l
206.928 342.566 l
208.898 343.762 l
209.883 344.242 l
217.765 346.513 l
218.75 346.941 l
222.691 347.713 l
224.662 348.239 l
225.647 348.588 l
228.603 349.065 l
229.588 349.436 l
230.573 349.526 l
233.529 350.589 l
234.514 350.632 l
237.47 351.086 l
239.44 351.748 l
241.41 351.982 l
242.396 352.003 l
245.351 352.39 l
246.336 352.821 l
247.322 353.079 l
257.174 354.145 l
268.997 355.174 l
273.923 355.475 l
275.893 355.755 l
278.849 355.991 l
279.834 356.077 l
280.819 356.462 l
283.775 356.63 l
284.76 356.767 l
286.73 356.848 l
290.671 357.131 l
293.627 357.228 l
300.524 357.572 l
302.494 357.73 l
303.479 357.895 l
307.42 358.191 l
311.361 358.595 l
320.228 359.094 l
323.184 359.159 l
324.169 572.583 l
325.154 573.698 l
326.139 575.039 l
327.124 575.556 l
328.11 575.774 l
329.095 576.425 l
330.08 576.606 l
331.065 576.965 l
332.051 577.107 l
334.021 577.903 l
335.006 578.226 l
335.991 578.314 l
336.977 578.54 l
337.962 578.926 l
339.932 579.365 l
340.917 579.681 l
342.888 579.85 l
344.858 580.004 l
345.844 580.232 l
348.799 580.5 l
349.784 581.02 l
351.755 581.185 l
352.74 581.272 l
354.711 581.6 l
357.666 581.863 l
358.651 582.199 l
369.489 582.83 l
373.43 582.98 l
377.371 583.189 l
382.297 583.384 l
395.105 583.746 l
411.853 584.057 l
413.824 584.174 l
468.996 584.802 l
518.257 584.908 l
520.227 584.914 l
521.213 343.743 l
522.198 344.494 l
523.183 345.796 l
524.168 347.335 l
525.153 348.239 l
527.124 350.266 l
528.109 350.551 l
529.094 351.929 l
530.079 352.108 l
531.065 352.516 l
532.05 353.24 l
533.035 353.651 l
534.02 353.844 l
535.991 354.513 l
536.976 354.679 l
537.961 355.184 l
538.946 355.562 l
539.932 355.752 l
540.917 356.057 l
541.902 356.22 l
542.887 356.516 l
543.873 356.643 l
544.858 356.957 l
545.843 357.024 l
550.769 358.17 l
551.754 358.671 l
552.74 358.863 l
557.666 359.261 l
559.636 359.575 l
563.577 360.074 l
565.547 360.363 l
568.503 360.676 l
571.459 360.895 l
576.385 361.296 l
577.37 361.451 l
579.34 361.529 l
581.311 361.764 l
583.281 361.88 l
590.178 362.513 l
595.104 362.741 l
605.941 363.406 l
616.779 363.849 l
641.409 364.67 l
644.365 364.766 l
647.321 364.842 l
657.173 365.025 l
660.128 365.164 l
666.04 365.273 l
692.641 365.678 l
714.315 365.877 l
717.271 365.923 l
718.256 576.05 l
721.212 578.619 l
722.197 579.218 l
723.182 579.597 l
724.168 579.771 l
725.153 580.285 l
726.138 580.603 l
728.108 580.845 l
729.094 581.218 l
730.079 581.281 l
734.02 582.208 l
735.005 582.254 l
740.916 583.156 l
744.857 583.515 l
745.842 583.704 l
749.783 583.937 l
751.754 584.14 l
755.695 584.329 l
756.68 584.526 l
781.31 585.42 l
786.236 585.498 l
787.222 585.691 l
793.133 585.755 l
794.118 585.959 l
799.044 586.024 l
805.941 586.093 l
806.926 586.418 l
816.778 586.525 l
837.468 586.644 l
843.379 586.666 l
902.492 586.882 l
904.463 586.964 l
914.315 586.982 l
915.3 347.303 l
916.285 348.831 l
916.285 348.831 l
stroke
grestore
0 setlinecap
[6 6] 0 setdash
gsave
788.2 583.2 127.1 72.9 clipbox
127.125 88.6717 m
129.095 92.5456 l
133.036 101.161 l
135.992 108.132 l
137.962 113.356 l
139.933 119.324 l
141.903 126.306 l
143.874 134.491 l
145.844 144.068 l
148.8 160.044 l
154.711 192.442 l
156.682 202.028 l
158.652 210.475 l
161.608 221.152 l
163.578 227.674 l
166.534 236.335 l
167.519 239.046 l
171.46 248.297 l
174.416 254.453 l
176.386 258.228 l
181.312 267.581 l
182.297 269.064 l
183.282 270.793 l
184.268 272.253 l
185.253 274.003 l
186.238 275.17 l
188.209 277.909 l
189.194 279.551 l
191.164 282.031 l
192.149 283.412 l
197.076 289.327 l
199.046 291.084 l
201.016 293.276 l
202.002 294.019 l
202.987 295.011 l
203.972 295.602 l
206.928 298.637 l
207.913 299.352 l
210.869 302.044 l
211.854 302.746 l
213.824 304.413 l
216.78 306.83 l
217.765 307.224 l
220.721 308.911 l
222.691 309.838 l
224.662 311.163 l
225.647 311.497 l
226.632 312.257 l
227.617 312.555 l
228.603 313.052 l
229.588 313.421 l
231.558 314.504 l
233.529 315.669 l
234.514 315.704 l
235.499 316.015 l
236.484 316.62 l
237.47 316.93 l
238.455 317.085 l
239.44 317.831 l
241.41 318.537 l
242.396 319.07 l
243.381 319.158 l
247.322 320.335 l
248.307 320.533 l
249.292 320.545 l
251.263 321.442 l
253.233 321.861 l
255.203 322.418 l
256.189 322.569 l
258.159 323.283 l
259.144 323.644 l
260.13 323.797 l
261.115 323.811 l
262.1 324.162 l
265.056 324.944 l
267.026 325.376 l
268.997 325.634 l
269.982 325.982 l
270.967 326.008 l
271.952 326.158 l
272.937 326.599 l
273.923 326.62 l
274.908 326.915 l
275.893 326.905 l
276.878 327.203 l
277.863 327.268 l
278.849 327.6 l
279.834 327.739 l
281.804 327.853 l
282.79 328.04 l
285.745 328.149 l
286.73 328.334 l
287.716 328.791 l
289.686 329.233 l
290.671 329.222 l
291.657 329.088 l
293.627 329.482 l
294.612 329.631 l
295.597 329.382 l
296.583 329.611 l
297.568 329.538 l
298.553 329.759 l
300.524 330.689 l
301.509 330.756 l
303.479 330.622 l
305.45 330.785 l
306.435 330.575 l
309.39 331.204 l
310.376 331.121 l
311.361 331.292 l
312.346 331.306 l
316.287 331.908 l
317.272 331.669 l
318.257 331.96 l
319.243 332.003 l
320.228 332.343 l
321.213 332.208 l
323.184 332.286 l
324.169 143.542 l
325.154 150.066 l
326.139 157.56 l
327.124 166.294 l
328.11 176.504 l
329.095 187.945 l
330.08 200.891 l
332.051 231.348 l
334.021 266.685 l
340.917 396.301 l
342.888 427.316 l
344.858 452.538 l
346.829 472.576 l
348.799 487.789 l
349.784 494.301 l
351.755 504.509 l
353.725 512.314 l
354.711 515.048 l
356.681 519.509 l
357.666 521.517 l
358.651 523.145 l
359.637 524.465 l
360.622 525.26 l
361.607 526.602 l
362.592 527.557 l
366.533 530.077 l
367.518 530.547 l
368.504 530.519 l
369.489 530.832 l
371.459 530.782 l
374.415 532.113 l
375.4 532.217 l
376.385 532.163 l
377.371 532.792 l
378.356 532.594 l
379.341 532.943 l
380.326 533.412 l
381.311 533.732 l
383.282 533.898 l
384.267 533.646 l
386.238 534.222 l
387.223 534.077 l
388.208 534.171 l
389.193 533.903 l
390.178 534.469 l
391.164 534.463 l
392.149 534.887 l
393.134 534.675 l
395.105 534.929 l
397.075 535.395 l
398.06 535.242 l
400.031 535.371 l
401.016 535.53 l
402.001 535.825 l
402.986 535.285 l
405.942 535.539 l
406.927 535.607 l
407.912 535.819 l
408.898 535.533 l
409.883 535.797 l
410.868 536.301 l
411.853 536.284 l
412.838 536.07 l
413.824 535.569 l
414.809 535.898 l
415.794 535.877 l
416.779 535.99 l
417.765 536.407 l
418.75 536.505 l
419.735 536.321 l
420.72 535.951 l
421.705 536.446 l
422.691 536.376 l
423.676 536.467 l
425.646 536.162 l
426.632 536.85 l
427.617 536.666 l
428.602 536.239 l
430.572 536.184 l
432.543 536.568 l
434.513 536.389 l
435.498 536.632 l
436.484 536.713 l
438.454 536.467 l
439.439 536.687 l
443.38 536.845 l
444.365 537.12 l
445.351 536.719 l
446.336 536.478 l
447.321 536.444 l
448.306 536.798 l
449.292 536.633 l
450.277 536.992 l
451.262 537.172 l
452.247 537.64 l
453.232 537.792 l
454.218 537.42 l
455.203 537.193 l
456.188 537.089 l
457.173 537.128 l
458.159 536.903 l
461.114 537.462 l
462.099 537.276 l
463.085 536.925 l
465.055 537.03 l
466.04 537.267 l
467.025 537.306 l
468.011 537.217 l
469.981 537.355 l
470.966 536.943 l
471.952 537.152 l
472.937 536.891 l
473.922 536.764 l
474.907 537.175 l
475.892 537.348 l
476.878 537.198 l
477.863 537.313 l
478.848 537.185 l
479.833 537.187 l
480.819 537.444 l
483.774 537.1 l
484.759 536.704 l
485.745 536.801 l
487.715 537.419 l
488.7 537.315 l
489.686 537.411 l
491.656 537.426 l
493.626 537.509 l
496.582 536.937 l
497.567 537.425 l
498.552 537.578 l
499.538 537.865 l
501.508 537.312 l
502.493 537.228 l
503.479 537.643 l
504.464 537.298 l
505.449 537.565 l
506.434 537.585 l
508.405 538.08 l
509.39 537.851 l
510.375 538.049 l
511.36 538.113 l
512.346 537.994 l
513.331 538.225 l
514.316 538.094 l
515.301 537.82 l
516.286 537.809 l
518.257 537.565 l
520.227 537.519 l
521.213 107.644 l
522.198 110.184 l
523.183 113.071 l
524.168 116.506 l
525.153 120.545 l
526.139 125.425 l
528.109 137.255 l
530.079 151.724 l
532.05 169.452 l
535.006 199.709 l
538.946 240.498 l
540.917 258.5 l
542.887 274.23 l
543.873 281.021 l
545.843 292.595 l
546.828 297.462 l
548.799 305.04 l
550.769 311.038 l
551.754 313.546 l
552.74 315.704 l
554.71 319.316 l
557.666 323.263 l
560.621 326.071 l
561.606 326.881 l
563.577 327.829 l
564.562 328.518 l
566.533 329.424 l
569.488 330.262 l
570.473 330.635 l
571.459 330.764 l
575.4 332.17 l
577.37 332.594 l
578.355 332.947 l
579.34 332.79 l
580.326 333.181 l
582.296 333.394 l
586.237 334.231 l
589.193 334.632 l
590.178 334.693 l
591.163 334.545 l
592.148 334.798 l
593.133 334.8 l
594.119 335.181 l
596.089 335.35 l
599.045 336.354 l
600.03 336.161 l
602.986 336.44 l
603.971 336.734 l
604.956 336.526 l
605.941 336.642 l
606.927 336.442 l
607.912 337.001 l
609.882 336.878 l
610.867 336.858 l
611.853 337.004 l
612.838 336.706 l
613.823 337.172 l
614.808 337.4 l
616.779 337.567 l
619.734 338.169 l
621.705 338.13 l
622.69 338.538 l
625.646 338.944 l
626.631 338.85 l
628.601 339.198 l
629.587 338.975 l
630.572 338.885 l
631.557 338.974 l
632.542 338.88 l
634.513 338.982 l
636.483 338.982 l
637.468 339.149 l
638.454 338.957 l
640.424 339.065 l
641.409 339.182 l
642.394 338.985 l
645.35 338.919 l
646.335 339.034 l
647.321 339.362 l
649.291 339.449 l
650.276 339.396 l
652.247 339.485 l
653.232 339.755 l
654.217 339.713 l
656.187 339.849 l
657.173 339.798 l
658.158 340.071 l
660.128 340.267 l
665.054 340.214 l
669.981 340.484 l
673.921 341.261 l
675.892 341.056 l
676.877 341.308 l
677.862 341.13 l
678.848 341.332 l
679.833 341.095 l
688.7 340.975 l
689.685 340.919 l
690.67 341.155 l
692.641 341.305 l
697.567 341.383 l
698.552 341.843 l
702.493 341.384 l
704.463 341.387 l
705.448 341.307 l
707.419 341.55 l
709.389 341.593 l
710.375 341.355 l
711.36 341.662 l
712.345 341.459 l
713.33 341.552 l
714.315 341.499 l
715.301 341.69 l
716.286 342.065 l
717.271 341.824 l
718.256 149.771 l
719.241 156.429 l
720.227 164.005 l
721.212 173.238 l
722.197 184.031 l
724.168 210.338 l
726.138 242.328 l
729.094 298.669 l
733.035 376.787 l
735.005 411.812 l
736.975 441.707 l
737.961 454.885 l
738.946 466.256 l
740.916 485.074 l
741.902 492.71 l
743.872 504.985 l
744.857 510.309 l
746.828 518.083 l
748.798 523.125 l
750.768 526.765 l
751.754 528.428 l
752.739 529.293 l
753.724 530.614 l
754.709 531.605 l
755.695 531.818 l
756.68 532.416 l
758.65 533.845 l
760.621 535.129 l
761.606 535.956 l
762.591 536.383 l
764.562 536.386 l
765.547 536.798 l
766.532 536.586 l
770.473 537.861 l
771.458 537.84 l
772.443 538.194 l
773.429 538.394 l
774.414 538.376 l
775.399 538.133 l
778.355 537.859 l
779.34 538.104 l
780.325 538.48 l
781.31 538.462 l
783.281 538.691 l
784.266 538.901 l
785.251 539.555 l
786.236 539.787 l
787.222 540.166 l
789.192 539.803 l
790.177 540.139 l
792.148 540.425 l
793.133 540.147 l
795.103 539.99 l
797.074 540.483 l
798.059 539.943 l
801.015 539.665 l
802 539.918 l
802.985 539.554 l
803.97 539.65 l
806.926 539.455 l
807.911 539.958 l
808.896 539.501 l
809.882 539.843 l
810.867 539.826 l
812.837 539.589 l
813.822 539.227 l
814.808 539.6 l
815.793 539.618 l
817.763 539.157 l
818.749 539.293 l
819.734 539.263 l
820.719 539.371 l
822.689 539.205 l
823.675 540.031 l
824.66 540.006 l
825.645 539.742 l
826.63 539.348 l
827.616 539.959 l
828.601 540.07 l
830.571 539.919 l
831.556 539.691 l
832.542 539.849 l
833.527 539.456 l
834.512 539.643 l
835.497 539.382 l
838.453 539.381 l
839.438 539.705 l
841.409 539.892 l
842.394 539.87 l
843.379 540.008 l
844.364 539.491 l
845.349 539.288 l
846.335 539.324 l
848.305 539.939 l
849.29 539.924 l
852.246 539.597 l
853.231 539.79 l
854.216 539.839 l
856.187 540.233 l
857.172 540.346 l
858.157 540.039 l
859.143 539.855 l
860.128 539.787 l
861.113 539.849 l
862.098 539.542 l
863.083 540.083 l
864.069 540.188 l
865.054 540.091 l
866.039 539.7 l
867.024 539.687 l
868.01 539.855 l
868.995 539.819 l
869.98 540.018 l
871.95 540.679 l
873.921 540.806 l
875.891 540.742 l
876.876 540.565 l
877.862 540.236 l
878.847 540.726 l
879.832 540.643 l
880.817 540.302 l
882.788 540.804 l
883.773 541 l
885.743 540.59 l
886.729 540.903 l
887.714 540.864 l
889.684 540.203 l
890.67 540.635 l
892.64 540.339 l
895.596 540.015 l
896.581 540.313 l
897.566 540.454 l
898.551 540.114 l
899.537 540.661 l
900.522 540.637 l
901.507 540.916 l
903.477 540.357 l
904.463 540.296 l
905.448 540.578 l
906.433 540.729 l
908.403 540.405 l
909.389 540.998 l
911.359 540.73 l
912.344 540.975 l
913.33 540.704 l
914.315 540.88 l
915.3 108.397 l
916.285 111.177 l
916.285 111.177 l
stroke
grestore
0.500 setlinewidth
[] 0 setdash
gsave
/o {
gsave
newpath
translate
0.5 setlinewidth
1 setlinejoin
0 setlinecap
0 0 m
0 4 l
gsave
0.000 setgray
fill
grestore
stroke
grestore
} bind def
127.125 72.9 o
grestore
gsave
/o {
gsave
newpath
translate
0.5 setlinewidth
1 setlinejoin
0 setlinecap
0 0 m
0 -4 l
gsave
0.000 setgray
fill
grestore
stroke
grestore
} bind def
127.125 656.1 o
grestore
/DejaVuSans findfont
20.000 scalefont
setfont
gsave
122.085938 53.696875 translate
0.000000 rotate
0.000000 0.000000 m /zero glyphshow
grestore
gsave
/o {
gsave
newpath
translate
0.5 setlinewidth
1 setlinejoin
0 setlinecap
0 0 m
0 4 l
gsave
0.000 setgray
fill
grestore
stroke
grestore
} bind def
225.647 72.9 o
grestore
gsave
/o {
gsave
newpath
translate
0.5 setlinewidth
1 setlinejoin
0 setlinecap
0 0 m
0 -4 l
gsave
0.000 setgray
fill
grestore
stroke
grestore
} bind def
225.647 656.1 o
grestore
gsave
208.334375 53.696875 translate
0.000000 rotate
0.000000 0.000000 m /one glyphshow
12.724609 0.000000 m /zero glyphshow
25.449219 0.000000 m /zero glyphshow
grestore
gsave
/o {
gsave
newpath
translate
0.5 setlinewidth
1 setlinejoin
0 setlinecap
0 0 m
0 4 l
gsave
0.000 setgray
fill
grestore
stroke
grestore
} bind def
324.169 72.9 o
grestore
gsave
/o {
gsave
newpath
translate
0.5 setlinewidth
1 setlinejoin
0 setlinecap
0 0 m
0 -4 l
gsave
0.000 setgray
fill
grestore
stroke
grestore
} bind def
324.169 656.1 o
grestore
gsave
306.489063 53.696875 translate
0.000000 rotate
0.000000 0.000000 m /two glyphshow
12.724609 0.000000 m /zero glyphshow
25.449219 0.000000 m /zero glyphshow
grestore
gsave
/o {
gsave
newpath
translate
0.5 setlinewidth
1 setlinejoin
0 setlinecap
0 0 m
0 4 l
gsave
0.000 setgray
fill
grestore
stroke
grestore
} bind def
422.691 72.9 o
grestore
gsave
/o {
gsave
newpath
translate
0.5 setlinewidth
1 setlinejoin
0 setlinecap
0 0 m
0 -4 l
gsave
0.000 setgray
fill
grestore
stroke
grestore
} bind def
422.691 656.1 o
grestore
gsave
405.042188 53.696875 translate
0.000000 rotate
0.000000 0.000000 m /three glyphshow
12.724609 0.000000 m /zero glyphshow
25.449219 0.000000 m /zero glyphshow
grestore
gsave
/o {
gsave
newpath
translate
0.5 setlinewidth
1 setlinejoin
0 setlinecap
0 0 m
0 4 l
gsave
0.000 setgray
fill
grestore
stroke
grestore
} bind def
521.213 72.9 o
grestore
gsave
/o {
gsave
newpath
translate
0.5 setlinewidth
1 setlinejoin
0 setlinecap
0 0 m
0 -4 l
gsave
0.000 setgray
fill
grestore
stroke
grestore
} bind def
521.213 656.1 o
grestore
gsave
503.290625 53.696875 translate
0.000000 rotate
0.000000 0.000000 m /four glyphshow
12.724609 0.000000 m /zero glyphshow
25.449219 0.000000 m /zero glyphshow
grestore
gsave
/o {
gsave
newpath
translate
0.5 setlinewidth
1 setlinejoin
0 setlinecap
0 0 m
0 4 l
gsave
0.000 setgray
fill
grestore
stroke
grestore
} bind def
619.734 72.9 o
grestore
gsave
/o {
gsave
newpath
translate
0.5 setlinewidth
1 setlinejoin
0 setlinecap
0 0 m
0 -4 l
gsave
0.000 setgray
fill
grestore
stroke
grestore
} bind def
619.734 656.1 o
grestore
gsave
602.093750 53.696875 translate
0.000000 rotate
0.000000 0.000000 m /five glyphshow
12.724609 0.000000 m /zero glyphshow
25.449219 0.000000 m /zero glyphshow
grestore
gsave
/o {
gsave
newpath
translate
0.5 setlinewidth
1 setlinejoin
0 setlinecap
0 0 m
0 4 l
gsave
0.000 setgray
fill
grestore
stroke
grestore
} bind def
718.256 72.9 o
grestore
gsave
/o {
gsave
newpath
translate
0.5 setlinewidth
1 setlinejoin
0 setlinecap
0 0 m
0 -4 l
gsave
0.000 setgray
fill
grestore
stroke
grestore
} bind def
718.256 656.1 o
grestore
gsave
700.537500 53.696875 translate
0.000000 rotate
0.000000 0.000000 m /six glyphshow
12.724609 0.000000 m /zero glyphshow
25.449219 0.000000 m /zero glyphshow
grestore
gsave
/o {
gsave
newpath
translate
0.5 setlinewidth
1 setlinejoin
0 setlinecap
0 0 m
0 4 l
gsave
0.000 setgray
fill
grestore
stroke
grestore
} bind def
816.778 72.9 o
grestore
gsave
/o {
gsave
newpath
translate
0.5 setlinewidth
1 setlinejoin
0 setlinecap
0 0 m
0 -4 l
gsave
0.000 setgray
fill
grestore
stroke
grestore
} bind def
816.778 656.1 o
grestore
gsave
799.184375 53.696875 translate
0.000000 rotate
0.000000 0.000000 m /seven glyphshow
12.724609 0.000000 m /zero glyphshow
25.449219 0.000000 m /zero glyphshow
grestore
gsave
/o {
gsave
newpath
translate
0.5 setlinewidth
1 setlinejoin
0 setlinecap
0 0 m
0 4 l
gsave
0.000 setgray
fill
grestore
stroke
grestore
} bind def
915.3 72.9 o
grestore
gsave
/o {
gsave
newpath
translate
0.5 setlinewidth
1 setlinejoin
0 setlinecap
0 0 m
0 -4 l
gsave
0.000 setgray
fill
grestore
stroke
grestore
} bind def
915.3 656.1 o
grestore
gsave
897.565625 53.696875 translate
0.000000 rotate
0.000000 0.000000 m /eight glyphshow
12.724609 0.000000 m /zero glyphshow
25.449219 0.000000 m /zero glyphshow
grestore
gsave
466.829688 29.337500 translate
0.000000 rotate
0.000000 0.000000 m /G glyphshow
15.498047 0.000000 m /e glyphshow
27.802734 0.000000 m /n glyphshow
40.478516 0.000000 m /e glyphshow
52.783203 0.000000 m /r glyphshow
61.005859 0.000000 m /a glyphshow
73.261719 0.000000 m /t glyphshow
81.103516 0.000000 m /i glyphshow
86.660156 0.000000 m /o glyphshow
98.896484 0.000000 m /n glyphshow
grestore
gsave
/o {
gsave
newpath
translate
0.5 setlinewidth
1 setlinejoin
0 setlinecap
0 0 m
4 0 l
gsave
0.000 setgray
fill
grestore
stroke
grestore
} bind def
127.125 72.9 o
grestore
gsave
/o {
gsave
newpath
translate
0.5 setlinewidth
1 setlinejoin
0 setlinecap
0 0 m
-4 0 l
gsave
0.000 setgray
fill
grestore
stroke
grestore
} bind def
915.3 72.9 o
grestore
gsave
113.046875 67.376562 translate
0.000000 rotate
0.000000 0.000000 m /zero glyphshow
grestore
gsave
/o {
gsave
newpath
translate
0.5 setlinewidth
1 setlinejoin
0 setlinecap
0 0 m
4 0 l
gsave
0.000 setgray
fill
grestore
stroke
grestore
} bind def
127.125 164.025 o
grestore
gsave
/o {
gsave
newpath
translate
0.5 setlinewidth
1 setlinejoin
0 setlinecap
0 0 m
-4 0 l
gsave
0.000 setgray
fill
grestore
stroke
grestore
} bind def
915.3 164.025 o
grestore
gsave
113.687500 158.501562 translate
0.000000 rotate
0.000000 0.000000 m /five glyphshow
grestore
gsave
/o {
gsave
newpath
translate
0.5 setlinewidth
1 setlinejoin
0 setlinecap
0 0 m
4 0 l
gsave
0.000 setgray
fill
grestore
stroke
grestore
} bind def
127.125 255.15 o
grestore
gsave
/o {
gsave
newpath
translate
0.5 setlinewidth
1 setlinejoin
0 setlinecap
0 0 m
-4 0 l
gsave
0.000 setgray
fill
grestore
stroke
grestore
} bind def
915.3 255.15 o
grestore
gsave
101.218750 249.626562 translate
0.000000 rotate
0.000000 0.000000 m /one glyphshow
12.724609 0.000000 m /zero glyphshow
grestore
gsave
/o {
gsave
newpath
translate
0.5 setlinewidth
1 setlinejoin
0 setlinecap
0 0 m
4 0 l
gsave
0.000 setgray
fill
grestore
stroke
grestore
} bind def
127.125 346.275 o
grestore
gsave
/o {
gsave
newpath
translate
0.5 setlinewidth
1 setlinejoin
0 setlinecap
0 0 m
-4 0 l
gsave
0.000 setgray
fill
grestore
stroke
grestore
} bind def
915.3 346.275 o
grestore
gsave
101.625000 340.751562 translate
0.000000 rotate
0.000000 0.000000 m /one glyphshow
12.724609 0.000000 m /five glyphshow
grestore
gsave
/o {
gsave
newpath
translate
0.5 setlinewidth
1 setlinejoin
0 setlinecap
0 0 m
4 0 l
gsave
0.000 setgray
fill
grestore
stroke
grestore
} bind def
127.125 437.4 o
grestore
gsave
/o {
gsave
newpath
translate
0.5 setlinewidth
1 setlinejoin
0 setlinecap
0 0 m
-4 0 l
gsave
0.000 setgray
fill
grestore
stroke
grestore
} bind def
915.3 437.4 o
grestore
gsave
100.484375 431.876562 translate
0.000000 rotate
0.000000 0.000000 m /two glyphshow
12.724609 0.000000 m /zero glyphshow
grestore
gsave
/o {
gsave
newpath
translate
0.5 setlinewidth
1 setlinejoin
0 setlinecap
0 0 m
4 0 l
gsave
0.000 setgray
fill
grestore
stroke
grestore
} bind def
127.125 528.525 o
grestore
gsave
/o {
gsave
newpath
translate
0.5 setlinewidth
1 setlinejoin
0 setlinecap
0 0 m
-4 0 l
gsave
0.000 setgray
fill
grestore
stroke
grestore
} bind def
915.3 528.525 o
grestore
gsave
100.890625 523.001563 translate
0.000000 rotate
0.000000 0.000000 m /two glyphshow
12.724609 0.000000 m /five glyphshow
grestore
gsave
/o {
gsave
newpath
translate
0.5 setlinewidth
1 setlinejoin
0 setlinecap
0 0 m
4 0 l
gsave
0.000 setgray
fill
grestore
stroke
grestore
} bind def
127.125 619.65 o
grestore
gsave
/o {
gsave
newpath
translate
0.5 setlinewidth
1 setlinejoin
0 setlinecap
0 0 m
-4 0 l
gsave
0.000 setgray
fill
grestore
stroke
grestore
} bind def
915.3 619.65 o
grestore
gsave
100.546875 614.126562 translate
0.000000 rotate
0.000000 0.000000 m /three glyphshow
12.724609 0.000000 m /zero glyphshow
grestore
gsave
91.328125 331.359375 translate
90.000000 rotate
0.000000 0.000000 m /F glyphshow
10.003906 0.000000 m /i glyphshow
15.560547 0.000000 m /t glyphshow
23.402344 0.000000 m /n glyphshow
36.078125 0.000000 m /e glyphshow
48.382812 0.000000 m /s glyphshow
58.802734 0.000000 m /s glyphshow
grestore
1.000 setlinewidth
gsave
127.125 656.1 m
915.3 656.1 l
stroke
grestore
gsave
915.3 72.9 m
915.3 656.1 l
stroke
grestore
gsave
127.125 72.9 m
915.3 72.9 l
stroke
grestore
gsave
127.125 72.9 m
127.125 656.1 l
stroke
grestore
gsave
700.197 84.9 m
903.3 84.9 l
903.3 162.569 l
700.197 162.569 l
700.197 84.9 l
cl
gsave
1.000 setgray
fill
grestore
stroke
grestore
2 setlinecap
gsave
716.997 143.134 m
750.597 143.134 l
stroke
grestore
/DejaVuSans findfont
24.000 scalefont
setfont
gsave
776.996875 134.734375 translate
0.000000 rotate
0.000000 0.000000 m /m glyphshow
23.378906 0.000000 m /a glyphshow
38.085938 0.000000 m /x glyphshow
52.289062 0.000000 m /i glyphshow
58.957031 0.000000 m /m glyphshow
82.335938 0.000000 m /u glyphshow
97.546875 0.000000 m /m glyphshow
grestore
0 setlinecap
[6 6] 0 setdash
gsave
716.997 107.9 m
750.597 107.9 l
stroke
grestore
gsave
776.996875 99.500000 translate
0.000000 rotate
0.000000 0.000000 m /a glyphshow
14.707031 0.000000 m /v glyphshow
28.910156 0.000000 m /e glyphshow
43.675781 0.000000 m /r glyphshow
53.542969 0.000000 m /a glyphshow
68.250000 0.000000 m /g glyphshow
83.484375 0.000000 m /e glyphshow
grestore

end
showpage
