%!PS-Adobe-3.0 EPSF-3.0
%%Title: /home/david/Documents/Research_Report/gfx/waypoint_grn_late.eps
%%Creator: matplotlib version 1.3.1, http://matplotlib.org/
%%CreationDate: Thu Aug 13 12:41:36 2015
%%Orientation: portrait
%%BoundingBox: -202 31 814 760
%%EndComments
%%BeginProlog
/mpldict 8 dict def
mpldict begin
/m { moveto } bind def
/l { lineto } bind def
/r { rlineto } bind def
/c { curveto } bind def
/cl { closepath } bind def
/box {
m
1 index 0 r
0 exch r
neg 0 r
cl
} bind def
/clipbox {
box
clip
newpath
} bind def
%!PS-Adobe-3.0 Resource-Font
%%Title: DejaVu Sans
%%Copyright: Copyright (c) 2003 by Bitstream, Inc. All Rights Reserved. Copyright (c) 2006 by Tavmjong Bah. All Rights Reserved. DejaVu changes are in public domain 
%%Creator: Converted from TrueType to type 3 by PPR
25 dict begin
/_d{bind def}bind def
/_m{moveto}_d
/_l{lineto}_d
/_cl{closepath eofill}_d
/_c{curveto}_d
/_sc{7 -1 roll{setcachedevice}{pop pop pop pop pop pop}ifelse}_d
/_e{exec}_d
/FontName /DejaVuSans def
/PaintType 0 def
/FontMatrix[.001 0 0 .001 0 0]def
/FontBBox[-1021 -415 1681 1167]def
/FontType 3 def
/Encoding [ /zero /one /two /three /four /five /six /seven /eight /nine /F /G /a /e /g /i /m /n /o /r /s /t /u /v /x ] def
/FontInfo 10 dict dup begin
/FamilyName (DejaVu Sans) def
/FullName (DejaVu Sans) def
/Notice (Copyright (c) 2003 by Bitstream, Inc. All Rights Reserved. Copyright (c) 2006 by Tavmjong Bah. All Rights Reserved. DejaVu changes are in public domain ) def
/Weight (Book) def
/Version (Version 2.34) def
/ItalicAngle 0.0 def
/isFixedPitch false def
/UnderlinePosition -130 def
/UnderlineThickness 90 def
end readonly def
/CharStrings 25 dict dup begin
/zero{636 0 66 -13 570 742 _sc
318 664 _m
267 664 229 639 203 589 _c
177 539 165 464 165 364 _c
165 264 177 189 203 139 _c
229 89 267 64 318 64 _c
369 64 407 89 433 139 _c
458 189 471 264 471 364 _c
471 464 458 539 433 589 _c
407 639 369 664 318 664 _c
318 742 _m
399 742 461 709 505 645 _c
548 580 570 486 570 364 _c
570 241 548 147 505 83 _c
461 19 399 -13 318 -13 _c
236 -13 173 19 130 83 _c
87 147 66 241 66 364 _c
66 486 87 580 130 645 _c
173 709 236 742 318 742 _c
_cl}_d
/one{636 0 110 0 544 729 _sc
124 83 _m
285 83 _l
285 639 _l
110 604 _l
110 694 _l
284 729 _l
383 729 _l
383 83 _l
544 83 _l
544 0 _l
124 0 _l
124 83 _l
_cl}_d
/two{{636 0 73 0 536 742 _sc
192 83 _m
536 83 _l
536 0 _l
73 0 _l
73 83 _l
110 121 161 173 226 239 _c
290 304 331 346 348 365 _c
380 400 402 430 414 455 _c
426 479 433 504 433 528 _c
433 566 419 598 392 622 _c
365 646 330 659 286 659 _c
255 659 222 653 188 643 _c
154 632 117 616 78 594 _c
78 694 _l
118 710 155 722 189 730 _c
223 738 255 742 284 742 _c
}_e{359 742 419 723 464 685 _c
509 647 532 597 532 534 _c
532 504 526 475 515 449 _c
504 422 484 390 454 354 _c
446 344 420 317 376 272 _c
332 227 271 164 192 83 _c
_cl}_e}_d
/three{{636 0 76 -13 556 742 _sc
406 393 _m
453 383 490 362 516 330 _c
542 298 556 258 556 212 _c
556 140 531 84 482 45 _c
432 6 362 -13 271 -13 _c
240 -13 208 -10 176 -4 _c
144 1 110 10 76 22 _c
76 117 _l
103 101 133 89 166 81 _c
198 73 232 69 268 69 _c
330 69 377 81 409 105 _c
441 129 458 165 458 212 _c
458 254 443 288 413 312 _c
383 336 341 349 287 349 _c
}_e{202 349 _l
202 430 _l
291 430 _l
339 430 376 439 402 459 _c
428 478 441 506 441 543 _c
441 580 427 609 401 629 _c
374 649 336 659 287 659 _c
260 659 231 656 200 650 _c
169 644 135 635 98 623 _c
98 711 _l
135 721 170 729 203 734 _c
235 739 266 742 296 742 _c
370 742 429 725 473 691 _c
517 657 539 611 539 553 _c
539 513 527 479 504 451 _c
481 423 448 403 406 393 _c
_cl}_e}_d
/four{636 0 49 0 580 729 _sc
378 643 _m
129 254 _l
378 254 _l
378 643 _l
352 729 _m
476 729 _l
476 254 _l
580 254 _l
580 172 _l
476 172 _l
476 0 _l
378 0 _l
378 172 _l
49 172 _l
49 267 _l
352 729 _l
_cl}_d
/five{{636 0 77 -13 549 729 _sc
108 729 _m
495 729 _l
495 646 _l
198 646 _l
198 467 _l
212 472 227 476 241 478 _c
255 480 270 482 284 482 _c
365 482 429 459 477 415 _c
525 370 549 310 549 234 _c
549 155 524 94 475 51 _c
426 8 357 -13 269 -13 _c
238 -13 207 -10 175 -6 _c
143 -1 111 6 77 17 _c
77 116 _l
106 100 136 88 168 80 _c
199 72 232 69 267 69 _c
}_e{323 69 368 83 401 113 _c
433 143 450 183 450 234 _c
450 284 433 324 401 354 _c
368 384 323 399 267 399 _c
241 399 214 396 188 390 _c
162 384 135 375 108 363 _c
108 729 _l
_cl}_e}_d
/six{{636 0 70 -13 573 742 _sc
330 404 _m
286 404 251 388 225 358 _c
199 328 186 286 186 234 _c
186 181 199 139 225 109 _c
251 79 286 64 330 64 _c
374 64 409 79 435 109 _c
461 139 474 181 474 234 _c
474 286 461 328 435 358 _c
409 388 374 404 330 404 _c
526 713 _m
526 623 _l
501 635 476 644 451 650 _c
425 656 400 659 376 659 _c
310 659 260 637 226 593 _c
}_e{192 549 172 482 168 394 _c
187 422 211 444 240 459 _c
269 474 301 482 336 482 _c
409 482 467 459 509 415 _c
551 371 573 310 573 234 _c
573 159 550 99 506 54 _c
462 9 403 -13 330 -13 _c
246 -13 181 19 137 83 _c
92 147 70 241 70 364 _c
70 479 97 571 152 639 _c
206 707 280 742 372 742 _c
396 742 421 739 447 735 _c
472 730 498 723 526 713 _c
_cl}_e}_d
/seven{636 0 82 0 551 729 _sc
82 729 _m
551 729 _l
551 687 _l
286 0 _l
183 0 _l
432 646 _l
82 646 _l
82 729 _l
_cl}_d
/eight{{636 0 68 -13 568 742 _sc
318 346 _m
271 346 234 333 207 308 _c
180 283 167 249 167 205 _c
167 161 180 126 207 101 _c
234 76 271 64 318 64 _c
364 64 401 76 428 102 _c
455 127 469 161 469 205 _c
469 249 455 283 429 308 _c
402 333 365 346 318 346 _c
219 388 _m
177 398 144 418 120 447 _c
96 476 85 511 85 553 _c
85 611 105 657 147 691 _c
188 725 245 742 318 742 _c
}_e{390 742 447 725 489 691 _c
530 657 551 611 551 553 _c
551 511 539 476 515 447 _c
491 418 459 398 417 388 _c
464 377 501 355 528 323 _c
554 291 568 251 568 205 _c
568 134 546 80 503 43 _c
459 5 398 -13 318 -13 _c
237 -13 175 5 132 43 _c
89 80 68 134 68 205 _c
68 251 81 291 108 323 _c
134 355 171 377 219 388 _c
183 544 _m
183 506 194 476 218 455 _c
}_e{242 434 275 424 318 424 _c
360 424 393 434 417 455 _c
441 476 453 506 453 544 _c
453 582 441 611 417 632 _c
393 653 360 664 318 664 _c
275 664 242 653 218 632 _c
194 611 183 582 183 544 _c
_cl}_e}_d
/nine{{636 0 63 -13 566 742 _sc
110 15 _m
110 105 _l
134 93 159 84 185 78 _c
210 72 235 69 260 69 _c
324 69 374 90 408 134 _c
442 178 462 244 468 334 _c
448 306 424 284 396 269 _c
367 254 335 247 300 247 _c
226 247 168 269 126 313 _c
84 357 63 417 63 494 _c
63 568 85 628 129 674 _c
173 719 232 742 306 742 _c
390 742 455 709 499 645 _c
543 580 566 486 566 364 _c
}_e{566 248 538 157 484 89 _c
429 21 356 -13 264 -13 _c
239 -13 214 -10 189 -6 _c
163 -2 137 5 110 15 _c
306 324 _m
350 324 385 339 411 369 _c
437 399 450 441 450 494 _c
450 546 437 588 411 618 _c
385 648 350 664 306 664 _c
262 664 227 648 201 618 _c
175 588 162 546 162 494 _c
162 441 175 399 201 369 _c
227 339 262 324 306 324 _c
_cl}_e}_d
/F{575 0 98 0 517 729 _sc
98 729 _m
517 729 _l
517 646 _l
197 646 _l
197 431 _l
486 431 _l
486 348 _l
197 348 _l
197 0 _l
98 0 _l
98 729 _l
_cl}_d
/G{{775 0 56 -13 693 742 _sc
595 104 _m
595 300 _l
434 300 _l
434 381 _l
693 381 _l
693 68 _l
655 40 613 20 567 7 _c
521 -6 472 -13 420 -13 _c
306 -13 216 20 152 86 _c
88 152 56 245 56 364 _c
56 482 88 575 152 642 _c
216 708 306 742 420 742 _c
467 742 512 736 555 724 _c
598 712 638 695 674 673 _c
674 568 _l
637 598 598 621 557 637 _c
516 653 473 661 428 661 _c
}_e{338 661 271 636 227 586 _c
182 536 160 462 160 364 _c
160 265 182 191 227 141 _c
271 91 338 67 428 67 _c
462 67 493 70 521 76 _c
549 82 573 91 595 104 _c
_cl}_e}_d
/a{{613 0 60 -13 522 560 _sc
343 275 _m
270 275 220 266 192 250 _c
164 233 150 205 150 165 _c
150 133 160 107 181 89 _c
202 70 231 61 267 61 _c
317 61 357 78 387 114 _c
417 149 432 196 432 255 _c
432 275 _l
343 275 _l
522 312 _m
522 0 _l
432 0 _l
432 83 _l
411 49 385 25 355 10 _c
325 -5 287 -13 243 -13 _c
187 -13 142 2 109 33 _c
76 64 60 106 60 159 _c
}_e{60 220 80 266 122 298 _c
163 329 224 345 306 345 _c
432 345 _l
432 354 _l
432 395 418 427 391 450 _c
364 472 326 484 277 484 _c
245 484 215 480 185 472 _c
155 464 127 453 100 439 _c
100 522 _l
132 534 164 544 195 550 _c
226 556 256 560 286 560 _c
365 560 424 539 463 498 _c
502 457 522 395 522 312 _c
_cl}_e}_d
/e{{615 0 55 -13 562 560 _sc
562 296 _m
562 252 _l
149 252 _l
153 190 171 142 205 110 _c
238 78 284 62 344 62 _c
378 62 412 66 444 74 _c
476 82 509 95 541 113 _c
541 28 _l
509 14 476 3 442 -3 _c
408 -9 373 -13 339 -13 _c
251 -13 182 12 131 62 _c
80 112 55 181 55 268 _c
55 357 79 428 127 481 _c
175 533 241 560 323 560 _c
397 560 455 536 498 489 _c
}_e{540 441 562 377 562 296 _c
472 322 _m
471 371 457 410 431 440 _c
404 469 368 484 324 484 _c
274 484 234 469 204 441 _c
174 413 156 373 152 322 _c
472 322 _l
_cl}_e}_d
/g{{635 0 55 -207 544 560 _sc
454 280 _m
454 344 440 395 414 431 _c
387 467 349 485 301 485 _c
253 485 215 467 188 431 _c
161 395 148 344 148 280 _c
148 215 161 165 188 129 _c
215 93 253 75 301 75 _c
349 75 387 93 414 129 _c
440 165 454 215 454 280 _c
544 68 _m
544 -24 523 -93 482 -139 _c
440 -184 377 -207 292 -207 _c
260 -207 231 -204 203 -200 _c
175 -195 147 -188 121 -178 _c
}_e{121 -91 _l
147 -105 173 -115 199 -122 _c
225 -129 251 -133 278 -133 _c
336 -133 380 -117 410 -87 _c
439 -56 454 -10 454 52 _c
454 96 _l
435 64 411 40 382 24 _c
353 8 319 0 279 0 _c
211 0 157 25 116 76 _c
75 127 55 195 55 280 _c
55 364 75 432 116 483 _c
157 534 211 560 279 560 _c
319 560 353 552 382 536 _c
411 520 435 496 454 464 _c
454 547 _l
544 547 _l
}_e{544 68 _l
_cl}_e}_d
/i{278 0 94 0 184 760 _sc
94 547 _m
184 547 _l
184 0 _l
94 0 _l
94 547 _l
94 760 _m
184 760 _l
184 646 _l
94 646 _l
94 760 _l
_cl}_d
/m{{974 0 91 0 889 560 _sc
520 442 _m
542 482 569 511 600 531 _c
631 550 668 560 711 560 _c
767 560 811 540 842 500 _c
873 460 889 403 889 330 _c
889 0 _l
799 0 _l
799 327 _l
799 379 789 418 771 444 _c
752 469 724 482 686 482 _c
639 482 602 466 575 435 _c
548 404 535 362 535 309 _c
535 0 _l
445 0 _l
445 327 _l
445 379 435 418 417 444 _c
398 469 369 482 331 482 _c
}_e{285 482 248 466 221 435 _c
194 404 181 362 181 309 _c
181 0 _l
91 0 _l
91 547 _l
181 547 _l
181 462 _l
201 495 226 520 255 536 _c
283 552 317 560 357 560 _c
397 560 430 550 458 530 _c
486 510 506 480 520 442 _c
_cl}_e}_d
/n{634 0 91 0 549 560 _sc
549 330 _m
549 0 _l
459 0 _l
459 327 _l
459 379 448 417 428 443 _c
408 469 378 482 338 482 _c
289 482 251 466 223 435 _c
195 404 181 362 181 309 _c
181 0 _l
91 0 _l
91 547 _l
181 547 _l
181 462 _l
202 494 227 519 257 535 _c
286 551 320 560 358 560 _c
420 560 468 540 500 501 _c
532 462 549 405 549 330 _c
_cl}_d
/o{612 0 55 -13 557 560 _sc
306 484 _m
258 484 220 465 192 427 _c
164 389 150 338 150 273 _c
150 207 163 156 191 118 _c
219 80 257 62 306 62 _c
354 62 392 80 420 118 _c
448 156 462 207 462 273 _c
462 337 448 389 420 427 _c
392 465 354 484 306 484 _c
306 560 _m
384 560 445 534 490 484 _c
534 433 557 363 557 273 _c
557 183 534 113 490 63 _c
445 12 384 -13 306 -13 _c
227 -13 165 12 121 63 _c
77 113 55 183 55 273 _c
55 363 77 433 121 484 _c
165 534 227 560 306 560 _c
_cl}_d
/r{411 0 91 0 411 560 _sc
411 463 _m
401 469 390 473 378 476 _c
366 478 353 480 339 480 _c
288 480 249 463 222 430 _c
194 397 181 350 181 288 _c
181 0 _l
91 0 _l
91 547 _l
181 547 _l
181 462 _l
199 495 224 520 254 536 _c
284 552 321 560 365 560 _c
371 560 378 559 386 559 _c
393 558 401 557 411 555 _c
411 463 _l
_cl}_d
/s{{521 0 54 -13 472 560 _sc
443 531 _m
443 446 _l
417 458 391 468 364 475 _c
336 481 308 485 279 485 _c
234 485 200 478 178 464 _c
156 450 145 430 145 403 _c
145 382 153 366 169 354 _c
185 342 217 330 265 320 _c
296 313 _l
360 299 405 279 432 255 _c
458 230 472 195 472 151 _c
472 100 452 60 412 31 _c
372 1 316 -13 246 -13 _c
216 -13 186 -10 154 -5 _c
}_e{122 0 89 8 54 20 _c
54 113 _l
87 95 120 82 152 74 _c
184 65 216 61 248 61 _c
290 61 323 68 346 82 _c
368 96 380 117 380 144 _c
380 168 371 187 355 200 _c
339 213 303 226 247 238 _c
216 245 _l
160 257 119 275 95 299 _c
70 323 58 356 58 399 _c
58 450 76 490 112 518 _c
148 546 200 560 268 560 _c
301 560 332 557 362 552 _c
391 547 418 540 443 531 _c
}_e{_cl}_e}_d
/t{392 0 27 0 368 702 _sc
183 702 _m
183 547 _l
368 547 _l
368 477 _l
183 477 _l
183 180 _l
183 135 189 106 201 94 _c
213 81 238 75 276 75 _c
368 75 _l
368 0 _l
276 0 _l
206 0 158 13 132 39 _c
106 65 93 112 93 180 _c
93 477 _l
27 477 _l
27 547 _l
93 547 _l
93 702 _l
183 702 _l
_cl}_d
/u{634 0 85 -13 543 560 _sc
85 216 _m
85 547 _l
175 547 _l
175 219 _l
175 167 185 129 205 103 _c
225 77 255 64 296 64 _c
344 64 383 79 411 110 _c
439 141 453 183 453 237 _c
453 547 _l
543 547 _l
543 0 _l
453 0 _l
453 84 _l
431 50 405 26 377 10 _c
348 -5 315 -13 277 -13 _c
214 -13 166 6 134 45 _c
101 83 85 140 85 216 _c
311 560 _m
311 560 _l
_cl}_d
/v{592 0 30 0 562 547 _sc
30 547 _m
125 547 _l
296 88 _l
467 547 _l
562 547 _l
357 0 _l
235 0 _l
30 547 _l
_cl}_d
/x{592 0 29 0 559 547 _sc
549 547 _m
351 281 _l
559 0 _l
453 0 _l
294 215 _l
135 0 _l
29 0 _l
241 286 _l
47 547 _l
153 547 _l
298 352 _l
443 547 _l
549 547 _l
_cl}_d
end readonly def

/BuildGlyph
 {exch begin
 CharStrings exch
 2 copy known not{pop /.notdef}if
 true 3 1 roll get exec
 end}_d

/BuildChar {
 1 index /Encoding get exch get
 1 index /BuildGlyph get exec
}_d

FontName currentdict end definefont pop
end
%%EndProlog
mpldict begin
-202.5 31.5 translate
1017 729 0 0 clipbox
gsave
0 0 m
1017 0 l
1017 729 l
0 729 l
cl
1.000 setgray
fill
grestore
gsave
127.125 72.9 m
915.3 72.9 l
915.3 656.1 l
127.125 656.1 l
cl
1.000 setgray
fill
grestore
1.000 setlinewidth
1 setlinejoin
2 setlinecap
[] 0 setdash
0.000 setgray
gsave
788.2 583.2 127.1 72.9 clipbox
126.14 596.408 m
127.125 470.162 l
128.11 472.22 l
129.095 490.06 l
131.066 521.621 l
132.051 525.738 l
133.036 532.599 l
134.022 545.635 l
135.007 552.496 l
135.992 553.182 l
137.962 566.219 l
138.948 566.219 l
140.918 567.591 l
141.903 573.08 l
142.889 577.196 l
143.874 578.569 l
144.859 584.058 l
145.844 585.43 l
146.829 588.174 l
147.815 594.349 l
148.8 597.094 l
154.711 597.094 l
156.682 598.466 l
162.593 598.466 l
163.578 599.152 l
165.549 599.152 l
166.534 600.524 l
169.489 600.524 l
171.46 603.269 l
177.371 603.269 l
178.356 603.955 l
193.135 603.955 l
194.12 604.641 l
198.061 604.641 l
199.046 605.327 l
210.869 605.327 l
211.854 606.013 l
307.42 606.013 l
308.405 606.7 l
315.302 606.7 l
316.287 607.386 l
323.184 607.386 l
324.169 485.943 l
325.154 496.235 l
326.139 499.665 l
327.124 509.957 l
328.11 512.701 l
330.08 526.424 l
331.065 529.168 l
332.051 532.599 l
333.036 533.971 l
335.006 543.577 l
335.991 549.066 l
336.977 551.81 l
337.962 555.927 l
338.947 556.613 l
339.932 558.671 l
341.903 561.416 l
343.873 565.532 l
344.858 566.219 l
345.844 570.335 l
346.829 572.394 l
347.814 576.51 l
348.799 577.196 l
350.77 577.196 l
351.755 579.255 l
352.74 580.627 l
353.725 581.313 l
355.696 581.313 l
356.681 581.999 l
357.666 581.999 l
358.651 582.685 l
364.563 582.685 l
365.548 584.058 l
366.533 586.116 l
367.518 586.116 l
368.504 588.174 l
369.489 588.86 l
370.474 588.86 l
371.459 590.233 l
379.341 590.233 l
380.326 590.919 l
391.164 590.919 l
392.149 591.605 l
395.105 591.605 l
396.09 592.291 l
416.779 592.291 l
417.765 592.977 l
444.365 592.977 l
445.351 595.036 l
457.173 595.036 l
458.159 595.722 l
464.07 595.722 l
465.055 597.78 l
476.878 597.78 l
477.863 598.466 l
520.227 598.466 l
521.213 473.593 l
522.198 495.548 l
523.183 513.388 l
524.168 518.876 l
525.153 529.854 l
526.139 536.716 l
527.124 542.204 l
528.109 549.066 l
529.094 552.496 l
530.079 557.299 l
531.065 565.532 l
532.05 566.905 l
533.035 571.708 l
534.02 574.452 l
535.006 581.313 l
535.991 582.685 l
536.976 582.685 l
537.961 585.43 l
538.946 589.547 l
539.932 592.977 l
540.917 592.977 l
541.902 593.663 l
542.887 597.78 l
543.873 599.838 l
546.828 599.838 l
547.813 601.897 l
548.799 603.269 l
549.784 603.269 l
550.769 604.641 l
551.754 604.641 l
552.74 605.327 l
555.695 605.327 l
556.68 606.7 l
574.414 606.7 l
575.4 607.386 l
576.385 607.386 l
577.37 608.072 l
589.193 608.072 l
591.163 609.444 l
598.06 609.444 l
599.045 610.13 l
602 610.13 l
602.986 610.816 l
717.271 610.816 l
718.256 483.198 l
719.241 496.235 l
720.227 503.096 l
721.212 507.212 l
722.197 516.818 l
723.182 517.504 l
724.168 522.307 l
725.153 538.774 l
726.138 542.891 l
727.123 543.577 l
728.108 547.693 l
729.094 552.496 l
730.079 555.927 l
731.064 560.73 l
732.049 562.788 l
733.035 564.16 l
734.02 570.335 l
735.005 572.394 l
735.99 573.08 l
736.975 577.883 l
737.961 579.255 l
738.946 581.313 l
739.931 581.999 l
740.916 581.999 l
742.887 583.372 l
743.872 583.372 l
744.857 584.744 l
746.828 584.744 l
747.813 587.488 l
748.798 588.174 l
753.724 588.174 l
754.709 589.547 l
762.591 589.547 l
763.576 590.233 l
765.547 590.233 l
766.532 590.919 l
769.488 590.919 l
770.473 591.605 l
772.443 591.605 l
773.428 592.291 l
780.325 592.291 l
781.31 593.663 l
783.281 593.663 l
784.266 595.722 l
819.734 595.722 l
820.719 597.78 l
841.409 597.78 l
842.394 598.466 l
907.418 598.466 l
908.403 599.152 l
914.315 599.152 l
914.315 599.152 l
stroke
grestore
0 setlinecap
[6 6] 0 setdash
gsave
788.2 583.2 127.1 72.9 clipbox
126.14 538.919 m
127.125 99.1008 l
128.11 101.112 l
130.081 105.898 l
132.051 111.984 l
133.036 115.666 l
134.022 119.846 l
135.007 124.627 l
135.992 130.137 l
136.977 136.548 l
138.948 151.913 l
140.918 171.276 l
142.889 194.055 l
144.859 220.303 l
146.829 248.987 l
153.726 355.718 l
155.696 384.069 l
158.652 421.688 l
159.637 432.868 l
161.608 452.037 l
162.593 460.95 l
163.578 468.518 l
165.549 481.281 l
167.519 492.943 l
168.504 497.542 l
170.475 505.69 l
172.445 512.572 l
174.416 517.618 l
175.401 520.107 l
180.327 529.791 l
183.282 533.517 l
184.268 535.024 l
185.253 535.677 l
186.238 537.138 l
188.209 538.603 l
189.194 539.312 l
190.179 539.597 l
191.164 539.659 l
192.149 540.407 l
195.105 542.074 l
196.09 542.343 l
198.061 543.3 l
200.031 543.728 l
201.016 543.819 l
202.002 543.664 l
203.972 544.79 l
204.957 545.073 l
205.943 545.068 l
206.928 544.796 l
207.913 545.048 l
209.883 545.755 l
210.869 545.519 l
211.854 545.421 l
212.839 545.918 l
213.824 545.741 l
214.809 546.041 l
215.795 545.548 l
216.78 545.781 l
217.765 545.657 l
221.706 546.983 l
222.691 546.575 l
223.676 547.015 l
224.662 547.2 l
225.647 547.214 l
226.632 547.501 l
227.617 547.064 l
228.603 547.47 l
229.588 546.867 l
230.573 546.42 l
232.543 547.123 l
233.529 547.744 l
234.514 547.743 l
235.499 547.873 l
236.484 547.776 l
238.455 547.243 l
239.44 547.341 l
240.425 547.858 l
241.41 547.984 l
242.396 548.405 l
243.381 548.281 l
244.366 548.744 l
245.351 548.996 l
247.322 548.793 l
248.307 548.83 l
249.292 549.048 l
250.277 548.808 l
253.233 549.236 l
254.218 548.701 l
255.203 549.021 l
256.189 548.646 l
257.174 548.957 l
259.144 548.475 l
260.13 548.869 l
261.115 548.817 l
262.1 548.583 l
263.085 548.839 l
264.07 548.878 l
265.056 549.229 l
266.041 548.46 l
268.011 548.718 l
268.997 548.545 l
270.967 547.741 l
271.952 548.777 l
272.937 548.597 l
274.908 549.042 l
276.878 548.388 l
277.863 548.666 l
278.849 548.504 l
279.834 548.933 l
281.804 548.675 l
282.79 549.295 l
283.775 549.265 l
285.745 549.666 l
286.73 549.228 l
287.716 548.635 l
289.686 549.763 l
290.671 549.568 l
291.657 549.124 l
294.612 549.137 l
295.597 549.278 l
296.583 548.843 l
297.568 548.655 l
298.553 548.328 l
300.524 548.459 l
301.509 548.732 l
302.494 548.753 l
303.479 548.645 l
304.464 548.787 l
305.45 549.195 l
306.435 549.186 l
307.42 548.899 l
308.405 548.327 l
309.39 549.007 l
310.376 549.394 l
311.361 549.265 l
312.346 549.451 l
313.331 549.395 l
314.317 549.49 l
317.272 548.773 l
319.243 549.046 l
320.228 549.044 l
321.213 549.287 l
322.198 548.92 l
323.184 549.028 l
324.169 102.361 l
326.139 106.185 l
328.11 110.988 l
329.095 113.852 l
331.065 121.051 l
332.051 125.689 l
333.036 130.989 l
335.006 144.232 l
335.991 152.186 l
336.977 161.178 l
338.947 182.558 l
340.917 207.711 l
343.873 251.271 l
350.77 358.517 l
352.74 384.878 l
354.711 408.158 l
355.696 418.906 l
357.666 436.901 l
359.637 452.014 l
360.622 458.64 l
362.592 469.589 l
364.563 478.791 l
365.548 482.868 l
366.533 486.217 l
367.518 489.002 l
368.504 492.337 l
369.489 495.247 l
371.459 500.326 l
372.444 502.388 l
373.43 504.732 l
374.415 506.629 l
375.4 507.744 l
377.371 511.101 l
379.341 514.087 l
381.311 516.256 l
382.297 517.593 l
383.282 518.623 l
385.252 521.178 l
386.238 521.739 l
387.223 522.966 l
389.193 524.302 l
390.178 524.658 l
392.149 525.9 l
393.134 526.306 l
394.119 526.569 l
396.09 527.516 l
397.075 527.353 l
398.06 528.193 l
399.045 528.702 l
400.031 528.663 l
401.016 529.193 l
402.001 529.388 l
403.971 529.59 l
404.957 530.533 l
405.942 530.846 l
406.927 531.317 l
407.912 531.058 l
408.898 531.533 l
409.883 531.607 l
410.868 532.107 l
412.838 533.993 l
413.824 534.192 l
414.809 533.929 l
415.794 534.141 l
416.779 534.84 l
417.765 535.028 l
418.75 534.979 l
419.735 535.44 l
421.705 535.489 l
423.676 535.608 l
425.646 535.132 l
426.632 535.681 l
427.617 535.521 l
428.602 535.778 l
430.572 535.686 l
431.558 535.275 l
432.543 535.541 l
433.528 535.525 l
434.513 535.167 l
436.484 536.115 l
437.469 536.021 l
438.454 536.48 l
439.439 536.425 l
440.425 536.625 l
441.41 536.948 l
442.395 537.545 l
443.38 537.236 l
444.365 537.127 l
445.351 537.202 l
446.336 536.853 l
448.306 537.078 l
449.292 537.231 l
450.277 536.582 l
451.262 537.131 l
452.247 536.925 l
453.232 537.524 l
454.218 537.133 l
455.203 537.076 l
456.188 537.387 l
458.159 537.157 l
459.144 536.724 l
460.129 537.272 l
461.114 537.076 l
462.099 537.351 l
463.085 536.612 l
465.055 537.186 l
466.04 536.822 l
467.025 537.619 l
468.011 537.964 l
468.996 537.713 l
469.981 538.095 l
470.966 537.682 l
471.952 537.638 l
472.937 537.359 l
473.922 537.737 l
474.907 537.632 l
475.892 537.891 l
476.878 537.599 l
477.863 537.899 l
478.848 538 l
479.833 537.868 l
480.819 537.891 l
482.789 538.3 l
483.774 538.798 l
484.759 539.077 l
485.745 538.453 l
488.7 538.748 l
489.686 539.157 l
490.671 538.71 l
491.656 539.19 l
492.641 538.83 l
493.626 539.153 l
496.582 539.68 l
497.567 539.314 l
499.538 539.955 l
500.523 539.893 l
501.508 540.154 l
502.493 540.031 l
503.479 540.97 l
504.464 541.232 l
505.449 541.764 l
506.434 541.466 l
507.419 540.995 l
508.405 541.174 l
510.375 542.111 l
511.36 542.22 l
512.346 542.602 l
513.331 542.492 l
514.316 543.294 l
515.301 543.165 l
516.286 542.484 l
517.272 541.607 l
520.227 541.75 l
521.213 101.243 l
523.183 105.356 l
525.153 110.652 l
526.139 113.743 l
527.124 117.224 l
529.094 125.646 l
531.065 136.555 l
532.05 143.213 l
534.02 159.349 l
535.991 178.57 l
537.961 201.194 l
539.932 227.445 l
543.873 285.885 l
548.799 360.319 l
550.769 387.774 l
552.74 412.657 l
554.71 435.067 l
556.68 454.914 l
558.651 471.882 l
560.621 486.899 l
561.606 492.532 l
565.547 512.17 l
566.533 515.84 l
568.503 521.382 l
570.473 527.032 l
571.459 528.574 l
572.444 530.744 l
573.429 532.352 l
574.414 533.362 l
575.4 535.121 l
576.385 536.407 l
577.37 537.079 l
578.355 538.453 l
580.326 540.676 l
582.296 541.807 l
583.281 542.609 l
584.267 543.047 l
585.252 542.967 l
586.237 543.275 l
587.222 543.803 l
588.207 543.787 l
589.193 544.342 l
590.178 544.361 l
591.163 545.064 l
594.119 546.185 l
595.104 546.775 l
596.089 546.473 l
598.06 547.153 l
600.03 548.259 l
601.015 547.891 l
602 548.093 l
602.986 548.18 l
603.971 547.679 l
604.956 548.126 l
606.927 547.923 l
607.912 548.541 l
608.897 548.646 l
609.882 548.46 l
611.853 548.627 l
612.838 549.039 l
614.808 549.282 l
615.793 549.028 l
616.779 549.328 l
617.764 549.388 l
618.749 549.685 l
619.734 549.345 l
621.705 549.903 l
622.69 550.333 l
623.675 550.295 l
624.66 550.675 l
625.646 550.059 l
626.631 550.242 l
627.616 551.076 l
628.601 551.503 l
629.587 551.5 l
630.572 552.065 l
631.557 551.908 l
632.542 552.051 l
634.513 551.446 l
635.498 551.938 l
636.483 551.836 l
637.468 551.882 l
638.454 551.501 l
639.439 551.397 l
641.409 551.495 l
643.38 551.311 l
644.365 551.361 l
645.35 551.849 l
646.335 551.658 l
647.32 551.324 l
649.291 551.288 l
650.276 551.092 l
652.247 551.856 l
654.217 551.963 l
656.187 551.945 l
657.173 552.024 l
659.143 551.622 l
660.128 551.831 l
661.114 551.798 l
662.099 551.985 l
663.084 551.849 l
664.069 552.649 l
666.04 552.17 l
667.025 552.345 l
668.01 551.91 l
668.995 552.163 l
669.981 552.597 l
670.966 552.127 l
671.951 552.371 l
672.936 552.12 l
673.921 552.061 l
674.907 552.472 l
676.877 552.386 l
677.862 551.977 l
678.847 551.729 l
680.818 552.196 l
681.803 552.336 l
682.788 552.629 l
683.774 552.466 l
684.759 552.469 l
685.744 552.224 l
686.729 552.535 l
687.714 552.191 l
688.7 552.099 l
689.685 552.249 l
691.655 552.24 l
692.641 552.506 l
693.626 552.278 l
694.611 552.299 l
698.552 551.84 l
699.537 552.215 l
705.448 552.381 l
706.434 552.171 l
707.419 552.303 l
709.389 553.06 l
710.374 552.656 l
711.36 552.71 l
712.345 553.02 l
714.315 552.708 l
716.286 553.051 l
717.271 552.873 l
718.256 100.703 l
719.241 102.422 l
720.227 104.382 l
722.197 109.329 l
723.182 112.35 l
724.168 116.004 l
725.153 120.388 l
726.138 125.308 l
727.123 130.942 l
728.108 137.514 l
729.094 145.075 l
730.079 153.715 l
731.064 163.497 l
733.035 186.303 l
735.005 213.376 l
737.961 259.479 l
742.887 340.161 l
744.857 369.806 l
746.828 395.722 l
747.813 407.934 l
749.783 428.358 l
751.754 445.92 l
752.739 453.641 l
754.709 466.261 l
756.68 476.886 l
758.65 485.322 l
760.621 492.162 l
763.576 500.739 l
766.532 507.522 l
769.488 513.062 l
770.473 514.645 l
772.443 518.214 l
776.384 523.989 l
777.369 524.981 l
779.34 526.357 l
780.325 527.218 l
781.31 527.619 l
783.281 529.74 l
784.266 529.896 l
785.251 530.469 l
786.236 531.434 l
787.222 531.549 l
788.207 532.005 l
789.192 532.136 l
790.177 532.461 l
792.148 533.758 l
794.118 533.87 l
795.103 534.115 l
796.089 534.16 l
797.074 534.652 l
798.059 534.833 l
799.044 534.66 l
800.029 535.073 l
801.015 535.301 l
802 535.393 l
802.985 535.172 l
804.956 536.073 l
805.941 536.053 l
806.926 536.361 l
807.911 536.168 l
808.896 535.657 l
809.882 536.177 l
811.852 536.503 l
812.837 537.015 l
813.822 536.88 l
815.793 536.357 l
816.778 536.914 l
817.763 537.167 l
818.749 537.69 l
819.734 537.486 l
820.719 537.06 l
821.704 537.339 l
822.689 537.835 l
823.675 538.134 l
824.66 538.13 l
825.645 538.38 l
826.63 537.941 l
827.616 538.034 l
828.601 538.364 l
829.586 538.173 l
830.571 538.265 l
831.556 538.166 l
832.542 538.44 l
833.527 538.897 l
834.512 538.504 l
835.497 538.542 l
838.453 539.885 l
839.438 540.405 l
841.409 539.605 l
842.394 539.949 l
843.379 539.874 l
844.364 539.594 l
845.349 539.456 l
848.305 540.265 l
849.29 540.415 l
850.276 540.029 l
852.246 539.774 l
853.231 540.15 l
854.216 540.65 l
855.202 540.772 l
856.187 540.673 l
857.172 540.996 l
858.157 541.019 l
859.143 541.154 l
860.128 541.414 l
862.098 541.296 l
863.083 541.4 l
864.069 541.233 l
865.054 541.512 l
867.024 541.802 l
868.01 541.707 l
868.995 542.244 l
869.98 541.876 l
870.965 542.515 l
872.936 542.159 l
873.921 541.647 l
874.906 541.265 l
876.876 541.498 l
878.847 541.31 l
879.832 541.881 l
880.817 542.615 l
881.803 543.112 l
883.773 543.07 l
884.758 543.434 l
885.743 543.305 l
886.729 543.476 l
887.714 542.847 l
890.67 542.484 l
891.655 542.982 l
892.64 542.83 l
894.61 542.781 l
896.581 542.185 l
897.566 542.397 l
898.551 542.171 l
899.537 542.648 l
900.522 542.638 l
901.507 542.213 l
902.492 542.447 l
903.477 542.318 l
904.463 542.748 l
905.448 542.5 l
906.433 542.462 l
907.418 542.222 l
908.403 542.464 l
909.389 542.188 l
910.374 542.234 l
911.359 542.945 l
912.344 542.368 l
914.315 542.718 l
914.315 542.718 l
stroke
grestore
0.500 setlinewidth
[] 0 setdash
gsave
/o {
gsave
newpath
translate
0.5 setlinewidth
1 setlinejoin
0 setlinecap
0 0 m
0 4 l
gsave
0.000 setgray
fill
grestore
stroke
grestore
} bind def
127.125 72.9 o
grestore
gsave
/o {
gsave
newpath
translate
0.5 setlinewidth
1 setlinejoin
0 setlinecap
0 0 m
0 -4 l
gsave
0.000 setgray
fill
grestore
stroke
grestore
} bind def
127.125 656.1 o
grestore
/DejaVuSans findfont
20.000 scalefont
setfont
gsave
102.984375 53.696875 translate
0.000000 rotate
0.000000 0.000000 m /nine glyphshow
12.724609 0.000000 m /two glyphshow
25.449219 0.000000 m /zero glyphshow
38.173828 0.000000 m /zero glyphshow
grestore
gsave
/o {
gsave
newpath
translate
0.5 setlinewidth
1 setlinejoin
0 setlinecap
0 0 m
0 4 l
gsave
0.000 setgray
fill
grestore
stroke
grestore
} bind def
225.647 72.9 o
grestore
gsave
/o {
gsave
newpath
translate
0.5 setlinewidth
1 setlinejoin
0 setlinecap
0 0 m
0 -4 l
gsave
0.000 setgray
fill
grestore
stroke
grestore
} bind def
225.647 656.1 o
grestore
gsave
201.506250 53.696875 translate
0.000000 rotate
0.000000 0.000000 m /nine glyphshow
12.724609 0.000000 m /three glyphshow
25.449219 0.000000 m /zero glyphshow
38.173828 0.000000 m /zero glyphshow
grestore
gsave
/o {
gsave
newpath
translate
0.5 setlinewidth
1 setlinejoin
0 setlinecap
0 0 m
0 4 l
gsave
0.000 setgray
fill
grestore
stroke
grestore
} bind def
324.169 72.9 o
grestore
gsave
/o {
gsave
newpath
translate
0.5 setlinewidth
1 setlinejoin
0 setlinecap
0 0 m
0 -4 l
gsave
0.000 setgray
fill
grestore
stroke
grestore
} bind def
324.169 656.1 o
grestore
gsave
300.028125 53.696875 translate
0.000000 rotate
0.000000 0.000000 m /nine glyphshow
12.724609 0.000000 m /four glyphshow
25.449219 0.000000 m /zero glyphshow
38.173828 0.000000 m /zero glyphshow
grestore
gsave
/o {
gsave
newpath
translate
0.5 setlinewidth
1 setlinejoin
0 setlinecap
0 0 m
0 4 l
gsave
0.000 setgray
fill
grestore
stroke
grestore
} bind def
422.691 72.9 o
grestore
gsave
/o {
gsave
newpath
translate
0.5 setlinewidth
1 setlinejoin
0 setlinecap
0 0 m
0 -4 l
gsave
0.000 setgray
fill
grestore
stroke
grestore
} bind def
422.691 656.1 o
grestore
gsave
398.550000 53.696875 translate
0.000000 rotate
0.000000 0.000000 m /nine glyphshow
12.724609 0.000000 m /five glyphshow
25.449219 0.000000 m /zero glyphshow
38.173828 0.000000 m /zero glyphshow
grestore
gsave
/o {
gsave
newpath
translate
0.5 setlinewidth
1 setlinejoin
0 setlinecap
0 0 m
0 4 l
gsave
0.000 setgray
fill
grestore
stroke
grestore
} bind def
521.213 72.9 o
grestore
gsave
/o {
gsave
newpath
translate
0.5 setlinewidth
1 setlinejoin
0 setlinecap
0 0 m
0 -4 l
gsave
0.000 setgray
fill
grestore
stroke
grestore
} bind def
521.213 656.1 o
grestore
gsave
497.071875 53.696875 translate
0.000000 rotate
0.000000 0.000000 m /nine glyphshow
12.724609 0.000000 m /six glyphshow
25.449219 0.000000 m /zero glyphshow
38.173828 0.000000 m /zero glyphshow
grestore
gsave
/o {
gsave
newpath
translate
0.5 setlinewidth
1 setlinejoin
0 setlinecap
0 0 m
0 4 l
gsave
0.000 setgray
fill
grestore
stroke
grestore
} bind def
619.734 72.9 o
grestore
gsave
/o {
gsave
newpath
translate
0.5 setlinewidth
1 setlinejoin
0 setlinecap
0 0 m
0 -4 l
gsave
0.000 setgray
fill
grestore
stroke
grestore
} bind def
619.734 656.1 o
grestore
gsave
595.593750 53.696875 translate
0.000000 rotate
0.000000 0.000000 m /nine glyphshow
12.724609 0.000000 m /seven glyphshow
25.449219 0.000000 m /zero glyphshow
38.173828 0.000000 m /zero glyphshow
grestore
gsave
/o {
gsave
newpath
translate
0.5 setlinewidth
1 setlinejoin
0 setlinecap
0 0 m
0 4 l
gsave
0.000 setgray
fill
grestore
stroke
grestore
} bind def
718.256 72.9 o
grestore
gsave
/o {
gsave
newpath
translate
0.5 setlinewidth
1 setlinejoin
0 setlinecap
0 0 m
0 -4 l
gsave
0.000 setgray
fill
grestore
stroke
grestore
} bind def
718.256 656.1 o
grestore
gsave
694.115625 53.696875 translate
0.000000 rotate
0.000000 0.000000 m /nine glyphshow
12.724609 0.000000 m /eight glyphshow
25.449219 0.000000 m /zero glyphshow
38.173828 0.000000 m /zero glyphshow
grestore
gsave
/o {
gsave
newpath
translate
0.5 setlinewidth
1 setlinejoin
0 setlinecap
0 0 m
0 4 l
gsave
0.000 setgray
fill
grestore
stroke
grestore
} bind def
816.778 72.9 o
grestore
gsave
/o {
gsave
newpath
translate
0.5 setlinewidth
1 setlinejoin
0 setlinecap
0 0 m
0 -4 l
gsave
0.000 setgray
fill
grestore
stroke
grestore
} bind def
816.778 656.1 o
grestore
gsave
792.637500 53.696875 translate
0.000000 rotate
0.000000 0.000000 m /nine glyphshow
12.724609 0.000000 m /nine glyphshow
25.449219 0.000000 m /zero glyphshow
38.173828 0.000000 m /zero glyphshow
grestore
gsave
/o {
gsave
newpath
translate
0.5 setlinewidth
1 setlinejoin
0 setlinecap
0 0 m
0 4 l
gsave
0.000 setgray
fill
grestore
stroke
grestore
} bind def
915.3 72.9 o
grestore
gsave
/o {
gsave
newpath
translate
0.5 setlinewidth
1 setlinejoin
0 setlinecap
0 0 m
0 -4 l
gsave
0.000 setgray
fill
grestore
stroke
grestore
} bind def
915.3 656.1 o
grestore
gsave
885.268750 53.696875 translate
0.000000 rotate
0.000000 0.000000 m /one glyphshow
12.724609 0.000000 m /zero glyphshow
25.449219 0.000000 m /zero glyphshow
38.173828 0.000000 m /zero glyphshow
50.898438 0.000000 m /zero glyphshow
grestore
gsave
466.829688 29.337500 translate
0.000000 rotate
0.000000 0.000000 m /G glyphshow
15.498047 0.000000 m /e glyphshow
27.802734 0.000000 m /n glyphshow
40.478516 0.000000 m /e glyphshow
52.783203 0.000000 m /r glyphshow
61.005859 0.000000 m /a glyphshow
73.261719 0.000000 m /t glyphshow
81.103516 0.000000 m /i glyphshow
86.660156 0.000000 m /o glyphshow
98.896484 0.000000 m /n glyphshow
grestore
gsave
/o {
gsave
newpath
translate
0.5 setlinewidth
1 setlinejoin
0 setlinecap
0 0 m
4 0 l
gsave
0.000 setgray
fill
grestore
stroke
grestore
} bind def
127.125 72.9 o
grestore
gsave
/o {
gsave
newpath
translate
0.5 setlinewidth
1 setlinejoin
0 setlinecap
0 0 m
-4 0 l
gsave
0.000 setgray
fill
grestore
stroke
grestore
} bind def
915.3 72.9 o
grestore
gsave
113.046875 67.376562 translate
0.000000 rotate
0.000000 0.000000 m /zero glyphshow
grestore
gsave
/o {
gsave
newpath
translate
0.5 setlinewidth
1 setlinejoin
0 setlinecap
0 0 m
4 0 l
gsave
0.000 setgray
fill
grestore
stroke
grestore
} bind def
127.125 141.512 o
grestore
gsave
/o {
gsave
newpath
translate
0.5 setlinewidth
1 setlinejoin
0 setlinecap
0 0 m
-4 0 l
gsave
0.000 setgray
fill
grestore
stroke
grestore
} bind def
915.3 141.512 o
grestore
gsave
114.453125 135.988327 translate
0.000000 rotate
0.000000 0.000000 m /one glyphshow
grestore
gsave
/o {
gsave
newpath
translate
0.5 setlinewidth
1 setlinejoin
0 setlinecap
0 0 m
4 0 l
gsave
0.000 setgray
fill
grestore
stroke
grestore
} bind def
127.125 210.124 o
grestore
gsave
/o {
gsave
newpath
translate
0.5 setlinewidth
1 setlinejoin
0 setlinecap
0 0 m
-4 0 l
gsave
0.000 setgray
fill
grestore
stroke
grestore
} bind def
915.3 210.124 o
grestore
gsave
113.875000 204.600092 translate
0.000000 rotate
0.000000 0.000000 m /two glyphshow
grestore
gsave
/o {
gsave
newpath
translate
0.5 setlinewidth
1 setlinejoin
0 setlinecap
0 0 m
4 0 l
gsave
0.000 setgray
fill
grestore
stroke
grestore
} bind def
127.125 278.735 o
grestore
gsave
/o {
gsave
newpath
translate
0.5 setlinewidth
1 setlinejoin
0 setlinecap
0 0 m
-4 0 l
gsave
0.000 setgray
fill
grestore
stroke
grestore
} bind def
915.3 278.735 o
grestore
gsave
113.531250 273.211857 translate
0.000000 rotate
0.000000 0.000000 m /three glyphshow
grestore
gsave
/o {
gsave
newpath
translate
0.5 setlinewidth
1 setlinejoin
0 setlinecap
0 0 m
4 0 l
gsave
0.000 setgray
fill
grestore
stroke
grestore
} bind def
127.125 347.347 o
grestore
gsave
/o {
gsave
newpath
translate
0.5 setlinewidth
1 setlinejoin
0 setlinecap
0 0 m
-4 0 l
gsave
0.000 setgray
fill
grestore
stroke
grestore
} bind def
915.3 347.347 o
grestore
gsave
112.500000 341.823621 translate
0.000000 rotate
0.000000 0.000000 m /four glyphshow
grestore
gsave
/o {
gsave
newpath
translate
0.5 setlinewidth
1 setlinejoin
0 setlinecap
0 0 m
4 0 l
gsave
0.000 setgray
fill
grestore
stroke
grestore
} bind def
127.125 415.959 o
grestore
gsave
/o {
gsave
newpath
translate
0.5 setlinewidth
1 setlinejoin
0 setlinecap
0 0 m
-4 0 l
gsave
0.000 setgray
fill
grestore
stroke
grestore
} bind def
915.3 415.959 o
grestore
gsave
113.687500 410.435386 translate
0.000000 rotate
0.000000 0.000000 m /five glyphshow
grestore
gsave
/o {
gsave
newpath
translate
0.5 setlinewidth
1 setlinejoin
0 setlinecap
0 0 m
4 0 l
gsave
0.000 setgray
fill
grestore
stroke
grestore
} bind def
127.125 484.571 o
grestore
gsave
/o {
gsave
newpath
translate
0.5 setlinewidth
1 setlinejoin
0 setlinecap
0 0 m
-4 0 l
gsave
0.000 setgray
fill
grestore
stroke
grestore
} bind def
915.3 484.571 o
grestore
gsave
113.046875 479.047151 translate
0.000000 rotate
0.000000 0.000000 m /six glyphshow
grestore
gsave
/o {
gsave
newpath
translate
0.5 setlinewidth
1 setlinejoin
0 setlinecap
0 0 m
4 0 l
gsave
0.000 setgray
fill
grestore
stroke
grestore
} bind def
127.125 553.182 o
grestore
gsave
/o {
gsave
newpath
translate
0.5 setlinewidth
1 setlinejoin
0 setlinecap
0 0 m
-4 0 l
gsave
0.000 setgray
fill
grestore
stroke
grestore
} bind def
915.3 553.182 o
grestore
gsave
113.750000 547.658915 translate
0.000000 rotate
0.000000 0.000000 m /seven glyphshow
grestore
gsave
/o {
gsave
newpath
translate
0.5 setlinewidth
1 setlinejoin
0 setlinecap
0 0 m
4 0 l
gsave
0.000 setgray
fill
grestore
stroke
grestore
} bind def
127.125 621.794 o
grestore
gsave
/o {
gsave
newpath
translate
0.5 setlinewidth
1 setlinejoin
0 setlinecap
0 0 m
-4 0 l
gsave
0.000 setgray
fill
grestore
stroke
grestore
} bind def
915.3 621.794 o
grestore
gsave
113.125000 616.270680 translate
0.000000 rotate
0.000000 0.000000 m /eight glyphshow
grestore
gsave
103.343750 331.359375 translate
90.000000 rotate
0.000000 0.000000 m /F glyphshow
10.003906 0.000000 m /i glyphshow
15.560547 0.000000 m /t glyphshow
23.402344 0.000000 m /n glyphshow
36.078125 0.000000 m /e glyphshow
48.382812 0.000000 m /s glyphshow
58.802734 0.000000 m /s glyphshow
grestore
1.000 setlinewidth
gsave
127.125 656.1 m
915.3 656.1 l
stroke
grestore
gsave
915.3 72.9 m
915.3 656.1 l
stroke
grestore
gsave
127.125 72.9 m
915.3 72.9 l
stroke
grestore
gsave
127.125 72.9 m
127.125 656.1 l
stroke
grestore
gsave
700.197 84.9 m
903.3 84.9 l
903.3 162.569 l
700.197 162.569 l
700.197 84.9 l
cl
gsave
1.000 setgray
fill
grestore
stroke
grestore
2 setlinecap
gsave
716.997 143.134 m
750.597 143.134 l
stroke
grestore
/DejaVuSans findfont
24.000 scalefont
setfont
gsave
776.996875 134.734375 translate
0.000000 rotate
0.000000 0.000000 m /m glyphshow
23.378906 0.000000 m /a glyphshow
38.085938 0.000000 m /x glyphshow
52.289062 0.000000 m /i glyphshow
58.957031 0.000000 m /m glyphshow
82.335938 0.000000 m /u glyphshow
97.546875 0.000000 m /m glyphshow
grestore
0 setlinecap
[6 6] 0 setdash
gsave
716.997 107.9 m
750.597 107.9 l
stroke
grestore
gsave
776.996875 99.500000 translate
0.000000 rotate
0.000000 0.000000 m /a glyphshow
14.707031 0.000000 m /v glyphshow
28.910156 0.000000 m /e glyphshow
43.675781 0.000000 m /r glyphshow
53.542969 0.000000 m /a glyphshow
68.250000 0.000000 m /g glyphshow
83.484375 0.000000 m /e glyphshow
grestore

end
showpage
