%!PS-Adobe-3.0 EPSF-3.0
%%Title: /home/david/Documents/Research_Report/gfx/waypoint_grn_early.eps
%%Creator: matplotlib version 1.3.1, http://matplotlib.org/
%%CreationDate: Thu Aug 13 12:37:01 2015
%%Orientation: portrait
%%BoundingBox: -202 31 814 760
%%EndComments
%%BeginProlog
/mpldict 8 dict def
mpldict begin
/m { moveto } bind def
/l { lineto } bind def
/r { rlineto } bind def
/c { curveto } bind def
/cl { closepath } bind def
/box {
m
1 index 0 r
0 exch r
neg 0 r
cl
} bind def
/clipbox {
box
clip
newpath
} bind def
%!PS-Adobe-3.0 Resource-Font
%%Title: DejaVu Sans
%%Copyright: Copyright (c) 2003 by Bitstream, Inc. All Rights Reserved. Copyright (c) 2006 by Tavmjong Bah. All Rights Reserved. DejaVu changes are in public domain 
%%Creator: Converted from TrueType to type 3 by PPR
25 dict begin
/_d{bind def}bind def
/_m{moveto}_d
/_l{lineto}_d
/_cl{closepath eofill}_d
/_c{curveto}_d
/_sc{7 -1 roll{setcachedevice}{pop pop pop pop pop pop}ifelse}_d
/_e{exec}_d
/FontName /DejaVuSans def
/PaintType 0 def
/FontMatrix[.001 0 0 .001 0 0]def
/FontBBox[-1021 -415 1681 1167]def
/FontType 3 def
/Encoding [ /zero /one /two /three /four /five /six /seven /eight /F /G /a /e /g /i /m /n /o /r /s /t /u /v /x ] def
/FontInfo 10 dict dup begin
/FamilyName (DejaVu Sans) def
/FullName (DejaVu Sans) def
/Notice (Copyright (c) 2003 by Bitstream, Inc. All Rights Reserved. Copyright (c) 2006 by Tavmjong Bah. All Rights Reserved. DejaVu changes are in public domain ) def
/Weight (Book) def
/Version (Version 2.34) def
/ItalicAngle 0.0 def
/isFixedPitch false def
/UnderlinePosition -130 def
/UnderlineThickness 90 def
end readonly def
/CharStrings 24 dict dup begin
/zero{636 0 66 -13 570 742 _sc
318 664 _m
267 664 229 639 203 589 _c
177 539 165 464 165 364 _c
165 264 177 189 203 139 _c
229 89 267 64 318 64 _c
369 64 407 89 433 139 _c
458 189 471 264 471 364 _c
471 464 458 539 433 589 _c
407 639 369 664 318 664 _c
318 742 _m
399 742 461 709 505 645 _c
548 580 570 486 570 364 _c
570 241 548 147 505 83 _c
461 19 399 -13 318 -13 _c
236 -13 173 19 130 83 _c
87 147 66 241 66 364 _c
66 486 87 580 130 645 _c
173 709 236 742 318 742 _c
_cl}_d
/one{636 0 110 0 544 729 _sc
124 83 _m
285 83 _l
285 639 _l
110 604 _l
110 694 _l
284 729 _l
383 729 _l
383 83 _l
544 83 _l
544 0 _l
124 0 _l
124 83 _l
_cl}_d
/two{{636 0 73 0 536 742 _sc
192 83 _m
536 83 _l
536 0 _l
73 0 _l
73 83 _l
110 121 161 173 226 239 _c
290 304 331 346 348 365 _c
380 400 402 430 414 455 _c
426 479 433 504 433 528 _c
433 566 419 598 392 622 _c
365 646 330 659 286 659 _c
255 659 222 653 188 643 _c
154 632 117 616 78 594 _c
78 694 _l
118 710 155 722 189 730 _c
223 738 255 742 284 742 _c
}_e{359 742 419 723 464 685 _c
509 647 532 597 532 534 _c
532 504 526 475 515 449 _c
504 422 484 390 454 354 _c
446 344 420 317 376 272 _c
332 227 271 164 192 83 _c
_cl}_e}_d
/three{{636 0 76 -13 556 742 _sc
406 393 _m
453 383 490 362 516 330 _c
542 298 556 258 556 212 _c
556 140 531 84 482 45 _c
432 6 362 -13 271 -13 _c
240 -13 208 -10 176 -4 _c
144 1 110 10 76 22 _c
76 117 _l
103 101 133 89 166 81 _c
198 73 232 69 268 69 _c
330 69 377 81 409 105 _c
441 129 458 165 458 212 _c
458 254 443 288 413 312 _c
383 336 341 349 287 349 _c
}_e{202 349 _l
202 430 _l
291 430 _l
339 430 376 439 402 459 _c
428 478 441 506 441 543 _c
441 580 427 609 401 629 _c
374 649 336 659 287 659 _c
260 659 231 656 200 650 _c
169 644 135 635 98 623 _c
98 711 _l
135 721 170 729 203 734 _c
235 739 266 742 296 742 _c
370 742 429 725 473 691 _c
517 657 539 611 539 553 _c
539 513 527 479 504 451 _c
481 423 448 403 406 393 _c
_cl}_e}_d
/four{636 0 49 0 580 729 _sc
378 643 _m
129 254 _l
378 254 _l
378 643 _l
352 729 _m
476 729 _l
476 254 _l
580 254 _l
580 172 _l
476 172 _l
476 0 _l
378 0 _l
378 172 _l
49 172 _l
49 267 _l
352 729 _l
_cl}_d
/five{{636 0 77 -13 549 729 _sc
108 729 _m
495 729 _l
495 646 _l
198 646 _l
198 467 _l
212 472 227 476 241 478 _c
255 480 270 482 284 482 _c
365 482 429 459 477 415 _c
525 370 549 310 549 234 _c
549 155 524 94 475 51 _c
426 8 357 -13 269 -13 _c
238 -13 207 -10 175 -6 _c
143 -1 111 6 77 17 _c
77 116 _l
106 100 136 88 168 80 _c
199 72 232 69 267 69 _c
}_e{323 69 368 83 401 113 _c
433 143 450 183 450 234 _c
450 284 433 324 401 354 _c
368 384 323 399 267 399 _c
241 399 214 396 188 390 _c
162 384 135 375 108 363 _c
108 729 _l
_cl}_e}_d
/six{{636 0 70 -13 573 742 _sc
330 404 _m
286 404 251 388 225 358 _c
199 328 186 286 186 234 _c
186 181 199 139 225 109 _c
251 79 286 64 330 64 _c
374 64 409 79 435 109 _c
461 139 474 181 474 234 _c
474 286 461 328 435 358 _c
409 388 374 404 330 404 _c
526 713 _m
526 623 _l
501 635 476 644 451 650 _c
425 656 400 659 376 659 _c
310 659 260 637 226 593 _c
}_e{192 549 172 482 168 394 _c
187 422 211 444 240 459 _c
269 474 301 482 336 482 _c
409 482 467 459 509 415 _c
551 371 573 310 573 234 _c
573 159 550 99 506 54 _c
462 9 403 -13 330 -13 _c
246 -13 181 19 137 83 _c
92 147 70 241 70 364 _c
70 479 97 571 152 639 _c
206 707 280 742 372 742 _c
396 742 421 739 447 735 _c
472 730 498 723 526 713 _c
_cl}_e}_d
/seven{636 0 82 0 551 729 _sc
82 729 _m
551 729 _l
551 687 _l
286 0 _l
183 0 _l
432 646 _l
82 646 _l
82 729 _l
_cl}_d
/eight{{636 0 68 -13 568 742 _sc
318 346 _m
271 346 234 333 207 308 _c
180 283 167 249 167 205 _c
167 161 180 126 207 101 _c
234 76 271 64 318 64 _c
364 64 401 76 428 102 _c
455 127 469 161 469 205 _c
469 249 455 283 429 308 _c
402 333 365 346 318 346 _c
219 388 _m
177 398 144 418 120 447 _c
96 476 85 511 85 553 _c
85 611 105 657 147 691 _c
188 725 245 742 318 742 _c
}_e{390 742 447 725 489 691 _c
530 657 551 611 551 553 _c
551 511 539 476 515 447 _c
491 418 459 398 417 388 _c
464 377 501 355 528 323 _c
554 291 568 251 568 205 _c
568 134 546 80 503 43 _c
459 5 398 -13 318 -13 _c
237 -13 175 5 132 43 _c
89 80 68 134 68 205 _c
68 251 81 291 108 323 _c
134 355 171 377 219 388 _c
183 544 _m
183 506 194 476 218 455 _c
}_e{242 434 275 424 318 424 _c
360 424 393 434 417 455 _c
441 476 453 506 453 544 _c
453 582 441 611 417 632 _c
393 653 360 664 318 664 _c
275 664 242 653 218 632 _c
194 611 183 582 183 544 _c
_cl}_e}_d
/F{575 0 98 0 517 729 _sc
98 729 _m
517 729 _l
517 646 _l
197 646 _l
197 431 _l
486 431 _l
486 348 _l
197 348 _l
197 0 _l
98 0 _l
98 729 _l
_cl}_d
/G{{775 0 56 -13 693 742 _sc
595 104 _m
595 300 _l
434 300 _l
434 381 _l
693 381 _l
693 68 _l
655 40 613 20 567 7 _c
521 -6 472 -13 420 -13 _c
306 -13 216 20 152 86 _c
88 152 56 245 56 364 _c
56 482 88 575 152 642 _c
216 708 306 742 420 742 _c
467 742 512 736 555 724 _c
598 712 638 695 674 673 _c
674 568 _l
637 598 598 621 557 637 _c
516 653 473 661 428 661 _c
}_e{338 661 271 636 227 586 _c
182 536 160 462 160 364 _c
160 265 182 191 227 141 _c
271 91 338 67 428 67 _c
462 67 493 70 521 76 _c
549 82 573 91 595 104 _c
_cl}_e}_d
/a{{613 0 60 -13 522 560 _sc
343 275 _m
270 275 220 266 192 250 _c
164 233 150 205 150 165 _c
150 133 160 107 181 89 _c
202 70 231 61 267 61 _c
317 61 357 78 387 114 _c
417 149 432 196 432 255 _c
432 275 _l
343 275 _l
522 312 _m
522 0 _l
432 0 _l
432 83 _l
411 49 385 25 355 10 _c
325 -5 287 -13 243 -13 _c
187 -13 142 2 109 33 _c
76 64 60 106 60 159 _c
}_e{60 220 80 266 122 298 _c
163 329 224 345 306 345 _c
432 345 _l
432 354 _l
432 395 418 427 391 450 _c
364 472 326 484 277 484 _c
245 484 215 480 185 472 _c
155 464 127 453 100 439 _c
100 522 _l
132 534 164 544 195 550 _c
226 556 256 560 286 560 _c
365 560 424 539 463 498 _c
502 457 522 395 522 312 _c
_cl}_e}_d
/e{{615 0 55 -13 562 560 _sc
562 296 _m
562 252 _l
149 252 _l
153 190 171 142 205 110 _c
238 78 284 62 344 62 _c
378 62 412 66 444 74 _c
476 82 509 95 541 113 _c
541 28 _l
509 14 476 3 442 -3 _c
408 -9 373 -13 339 -13 _c
251 -13 182 12 131 62 _c
80 112 55 181 55 268 _c
55 357 79 428 127 481 _c
175 533 241 560 323 560 _c
397 560 455 536 498 489 _c
}_e{540 441 562 377 562 296 _c
472 322 _m
471 371 457 410 431 440 _c
404 469 368 484 324 484 _c
274 484 234 469 204 441 _c
174 413 156 373 152 322 _c
472 322 _l
_cl}_e}_d
/g{{635 0 55 -207 544 560 _sc
454 280 _m
454 344 440 395 414 431 _c
387 467 349 485 301 485 _c
253 485 215 467 188 431 _c
161 395 148 344 148 280 _c
148 215 161 165 188 129 _c
215 93 253 75 301 75 _c
349 75 387 93 414 129 _c
440 165 454 215 454 280 _c
544 68 _m
544 -24 523 -93 482 -139 _c
440 -184 377 -207 292 -207 _c
260 -207 231 -204 203 -200 _c
175 -195 147 -188 121 -178 _c
}_e{121 -91 _l
147 -105 173 -115 199 -122 _c
225 -129 251 -133 278 -133 _c
336 -133 380 -117 410 -87 _c
439 -56 454 -10 454 52 _c
454 96 _l
435 64 411 40 382 24 _c
353 8 319 0 279 0 _c
211 0 157 25 116 76 _c
75 127 55 195 55 280 _c
55 364 75 432 116 483 _c
157 534 211 560 279 560 _c
319 560 353 552 382 536 _c
411 520 435 496 454 464 _c
454 547 _l
544 547 _l
}_e{544 68 _l
_cl}_e}_d
/i{278 0 94 0 184 760 _sc
94 547 _m
184 547 _l
184 0 _l
94 0 _l
94 547 _l
94 760 _m
184 760 _l
184 646 _l
94 646 _l
94 760 _l
_cl}_d
/m{{974 0 91 0 889 560 _sc
520 442 _m
542 482 569 511 600 531 _c
631 550 668 560 711 560 _c
767 560 811 540 842 500 _c
873 460 889 403 889 330 _c
889 0 _l
799 0 _l
799 327 _l
799 379 789 418 771 444 _c
752 469 724 482 686 482 _c
639 482 602 466 575 435 _c
548 404 535 362 535 309 _c
535 0 _l
445 0 _l
445 327 _l
445 379 435 418 417 444 _c
398 469 369 482 331 482 _c
}_e{285 482 248 466 221 435 _c
194 404 181 362 181 309 _c
181 0 _l
91 0 _l
91 547 _l
181 547 _l
181 462 _l
201 495 226 520 255 536 _c
283 552 317 560 357 560 _c
397 560 430 550 458 530 _c
486 510 506 480 520 442 _c
_cl}_e}_d
/n{634 0 91 0 549 560 _sc
549 330 _m
549 0 _l
459 0 _l
459 327 _l
459 379 448 417 428 443 _c
408 469 378 482 338 482 _c
289 482 251 466 223 435 _c
195 404 181 362 181 309 _c
181 0 _l
91 0 _l
91 547 _l
181 547 _l
181 462 _l
202 494 227 519 257 535 _c
286 551 320 560 358 560 _c
420 560 468 540 500 501 _c
532 462 549 405 549 330 _c
_cl}_d
/o{612 0 55 -13 557 560 _sc
306 484 _m
258 484 220 465 192 427 _c
164 389 150 338 150 273 _c
150 207 163 156 191 118 _c
219 80 257 62 306 62 _c
354 62 392 80 420 118 _c
448 156 462 207 462 273 _c
462 337 448 389 420 427 _c
392 465 354 484 306 484 _c
306 560 _m
384 560 445 534 490 484 _c
534 433 557 363 557 273 _c
557 183 534 113 490 63 _c
445 12 384 -13 306 -13 _c
227 -13 165 12 121 63 _c
77 113 55 183 55 273 _c
55 363 77 433 121 484 _c
165 534 227 560 306 560 _c
_cl}_d
/r{411 0 91 0 411 560 _sc
411 463 _m
401 469 390 473 378 476 _c
366 478 353 480 339 480 _c
288 480 249 463 222 430 _c
194 397 181 350 181 288 _c
181 0 _l
91 0 _l
91 547 _l
181 547 _l
181 462 _l
199 495 224 520 254 536 _c
284 552 321 560 365 560 _c
371 560 378 559 386 559 _c
393 558 401 557 411 555 _c
411 463 _l
_cl}_d
/s{{521 0 54 -13 472 560 _sc
443 531 _m
443 446 _l
417 458 391 468 364 475 _c
336 481 308 485 279 485 _c
234 485 200 478 178 464 _c
156 450 145 430 145 403 _c
145 382 153 366 169 354 _c
185 342 217 330 265 320 _c
296 313 _l
360 299 405 279 432 255 _c
458 230 472 195 472 151 _c
472 100 452 60 412 31 _c
372 1 316 -13 246 -13 _c
216 -13 186 -10 154 -5 _c
}_e{122 0 89 8 54 20 _c
54 113 _l
87 95 120 82 152 74 _c
184 65 216 61 248 61 _c
290 61 323 68 346 82 _c
368 96 380 117 380 144 _c
380 168 371 187 355 200 _c
339 213 303 226 247 238 _c
216 245 _l
160 257 119 275 95 299 _c
70 323 58 356 58 399 _c
58 450 76 490 112 518 _c
148 546 200 560 268 560 _c
301 560 332 557 362 552 _c
391 547 418 540 443 531 _c
}_e{_cl}_e}_d
/t{392 0 27 0 368 702 _sc
183 702 _m
183 547 _l
368 547 _l
368 477 _l
183 477 _l
183 180 _l
183 135 189 106 201 94 _c
213 81 238 75 276 75 _c
368 75 _l
368 0 _l
276 0 _l
206 0 158 13 132 39 _c
106 65 93 112 93 180 _c
93 477 _l
27 477 _l
27 547 _l
93 547 _l
93 702 _l
183 702 _l
_cl}_d
/u{634 0 85 -13 543 560 _sc
85 216 _m
85 547 _l
175 547 _l
175 219 _l
175 167 185 129 205 103 _c
225 77 255 64 296 64 _c
344 64 383 79 411 110 _c
439 141 453 183 453 237 _c
453 547 _l
543 547 _l
543 0 _l
453 0 _l
453 84 _l
431 50 405 26 377 10 _c
348 -5 315 -13 277 -13 _c
214 -13 166 6 134 45 _c
101 83 85 140 85 216 _c
311 560 _m
311 560 _l
_cl}_d
/v{592 0 30 0 562 547 _sc
30 547 _m
125 547 _l
296 88 _l
467 547 _l
562 547 _l
357 0 _l
235 0 _l
30 547 _l
_cl}_d
/x{592 0 29 0 559 547 _sc
549 547 _m
351 281 _l
559 0 _l
453 0 _l
294 215 _l
135 0 _l
29 0 _l
241 286 _l
47 547 _l
153 547 _l
298 352 _l
443 547 _l
549 547 _l
_cl}_d
end readonly def

/BuildGlyph
 {exch begin
 CharStrings exch
 2 copy known not{pop /.notdef}if
 true 3 1 roll get exec
 end}_d

/BuildChar {
 1 index /Encoding get exch get
 1 index /BuildGlyph get exec
}_d

FontName currentdict end definefont pop
end
%%EndProlog
mpldict begin
-202.5 31.5 translate
1017 729 0 0 clipbox
gsave
0 0 m
1017 0 l
1017 729 l
0 729 l
cl
1.000 setgray
fill
grestore
gsave
127.125 72.9 m
915.3 72.9 l
915.3 656.1 l
127.125 656.1 l
cl
1.000 setgray
fill
grestore
1.000 setlinewidth
1 setlinejoin
2 setlinecap
[] 0 setdash
0.000 setgray
gsave
788.2 583.2 127.1 72.9 clipbox
127.125 402.923 m
128.11 405.667 l
129.095 418.017 l
131.066 433.798 l
132.051 444.09 l
133.036 452.323 l
135.007 474.965 l
136.977 481.826 l
137.962 488.001 l
138.948 498.979 l
139.933 513.388 l
140.918 520.935 l
141.903 525.738 l
142.888 529.854 l
143.874 533.285 l
144.859 537.402 l
146.829 555.927 l
147.815 561.416 l
148.8 562.102 l
150.77 566.219 l
151.755 570.335 l
152.741 572.394 l
153.726 575.138 l
154.711 583.372 l
155.696 584.744 l
156.682 585.43 l
158.652 588.174 l
159.637 590.233 l
160.622 590.919 l
161.608 592.291 l
162.593 592.977 l
163.578 594.349 l
164.563 594.349 l
165.549 596.408 l
166.534 597.094 l
167.519 597.094 l
168.504 598.466 l
169.489 598.466 l
170.475 599.152 l
171.46 599.152 l
172.445 599.838 l
173.43 599.838 l
174.416 601.211 l
175.401 601.211 l
176.386 601.897 l
178.356 601.897 l
179.342 602.583 l
185.253 602.583 l
186.238 603.269 l
187.223 603.269 l
190.179 605.327 l
192.149 605.327 l
193.135 606.7 l
194.12 607.386 l
198.061 607.386 l
199.046 608.072 l
218.75 608.072 l
219.736 608.758 l
224.662 608.758 l
225.647 609.444 l
246.336 609.444 l
247.322 610.13 l
255.203 610.13 l
256.189 610.816 l
277.863 610.816 l
278.849 611.502 l
313.331 611.502 l
314.317 612.188 l
323.184 612.188 l
324.169 257.466 l
326.139 289.713 l
327.124 313.041 l
328.11 317.844 l
330.08 326.077 l
331.065 336.369 l
333.036 350.778 l
335.006 370.675 l
335.991 373.42 l
336.977 376.85 l
337.962 387.142 l
338.947 391.945 l
339.932 397.434 l
340.917 407.725 l
341.903 416.645 l
342.888 421.448 l
343.873 424.878 l
344.858 433.798 l
345.844 439.973 l
346.829 444.09 l
347.814 449.579 l
348.799 459.184 l
349.784 461.929 l
350.77 465.359 l
351.755 467.418 l
352.74 472.907 l
353.725 477.023 l
354.711 480.454 l
355.696 485.943 l
356.681 486.629 l
357.666 489.373 l
358.651 490.746 l
359.637 493.49 l
360.622 494.862 l
361.607 495.548 l
362.592 499.665 l
363.578 503.096 l
364.563 507.212 l
365.548 509.957 l
366.533 511.329 l
367.518 513.388 l
368.504 516.132 l
369.489 516.818 l
370.474 516.818 l
371.459 520.249 l
372.444 522.993 l
373.43 523.679 l
375.4 523.679 l
376.385 528.482 l
377.371 528.482 l
378.356 529.854 l
380.326 529.854 l
381.311 531.227 l
383.282 531.227 l
384.267 531.913 l
385.252 533.285 l
386.238 533.285 l
387.223 535.343 l
388.208 535.343 l
389.193 537.402 l
390.178 537.402 l
391.164 538.774 l
392.149 540.832 l
393.134 541.518 l
394.119 543.577 l
400.031 543.577 l
401.016 544.263 l
405.942 544.263 l
406.927 545.635 l
407.912 546.321 l
408.898 547.693 l
409.883 548.38 l
416.779 548.38 l
417.765 549.066 l
420.72 549.066 l
422.691 550.438 l
423.676 551.81 l
428.602 551.81 l
429.587 552.496 l
430.572 552.496 l
431.558 553.182 l
434.513 553.182 l
435.498 553.868 l
467.025 553.868 l
468.011 554.555 l
469.981 554.555 l
470.966 555.241 l
473.922 555.241 l
474.907 556.613 l
480.819 556.613 l
481.804 557.985 l
485.745 557.985 l
486.73 560.044 l
487.715 560.73 l
488.7 560.73 l
489.686 562.102 l
495.597 562.102 l
496.582 562.788 l
498.552 562.788 l
499.538 564.16 l
506.434 564.16 l
507.419 565.532 l
513.331 565.532 l
514.316 567.591 l
518.257 567.591 l
519.242 568.277 l
520.227 568.277 l
521.213 297.26 l
522.198 323.333 l
523.183 343.916 l
524.168 354.894 l
525.153 369.989 l
526.139 394.689 l
527.124 407.039 l
528.109 434.484 l
530.079 454.381 l
531.065 461.929 l
532.05 467.418 l
533.035 480.454 l
534.02 485.943 l
535.006 488.001 l
535.991 498.293 l
536.976 503.096 l
537.961 506.526 l
538.946 509.271 l
540.917 520.249 l
541.902 526.424 l
542.887 529.168 l
543.873 532.599 l
544.858 536.716 l
545.843 542.204 l
546.828 546.321 l
548.799 551.81 l
549.784 551.81 l
550.769 554.555 l
551.754 554.555 l
552.74 560.044 l
553.725 564.846 l
554.71 568.277 l
555.695 571.021 l
557.666 573.766 l
558.651 573.766 l
559.636 575.138 l
562.592 575.138 l
563.577 577.196 l
564.562 577.883 l
565.547 579.255 l
566.533 579.941 l
567.518 581.999 l
568.503 581.999 l
569.488 586.116 l
576.385 586.116 l
577.37 588.86 l
579.34 588.86 l
580.326 590.919 l
582.296 592.291 l
583.281 592.291 l
584.267 592.977 l
586.237 592.977 l
587.222 593.663 l
590.178 593.663 l
591.163 595.722 l
592.148 597.094 l
595.104 597.094 l
596.089 598.466 l
598.06 599.838 l
606.927 599.838 l
607.912 600.524 l
611.853 600.524 l
612.838 601.211 l
628.601 601.211 l
629.587 601.897 l
665.054 601.897 l
666.04 602.583 l
717.271 602.583 l
718.256 299.319 l
719.241 313.041 l
720.227 318.53 l
721.212 333.625 l
722.197 343.23 l
723.182 359.011 l
724.168 370.675 l
725.153 377.536 l
726.138 382.339 l
727.123 389.2 l
728.108 394.689 l
730.079 412.528 l
731.064 414.587 l
732.049 420.762 l
733.035 433.112 l
734.02 437.915 l
735.005 443.404 l
735.99 449.579 l
736.975 451.637 l
737.961 458.498 l
738.946 463.301 l
739.931 464.673 l
740.916 467.418 l
742.887 483.198 l
743.872 489.373 l
744.857 498.979 l
745.842 505.154 l
747.813 513.388 l
748.798 519.563 l
749.783 522.993 l
750.768 522.993 l
751.754 523.679 l
752.739 525.052 l
753.724 527.11 l
754.709 532.599 l
756.68 535.343 l
758.65 536.716 l
759.635 538.774 l
760.621 541.518 l
763.576 541.518 l
764.562 542.204 l
765.547 544.949 l
766.532 546.321 l
770.473 549.066 l
773.429 549.066 l
775.399 550.438 l
777.369 550.438 l
778.355 551.124 l
782.295 551.124 l
783.281 553.182 l
785.251 553.182 l
787.222 554.555 l
788.207 554.555 l
789.192 555.241 l
790.177 555.241 l
791.162 556.613 l
799.044 556.613 l
800.029 557.299 l
803.97 557.299 l
804.956 559.357 l
810.867 559.357 l
811.852 561.416 l
812.837 561.416 l
813.822 562.102 l
819.734 562.102 l
820.719 562.788 l
827.616 562.788 l
828.601 564.16 l
830.571 564.16 l
831.556 564.846 l
834.512 564.846 l
835.497 565.532 l
839.438 565.532 l
840.423 566.219 l
848.305 566.219 l
849.29 567.591 l
850.276 568.277 l
858.157 568.277 l
859.143 568.963 l
868.01 568.963 l
868.995 570.335 l
871.95 570.335 l
873.921 571.708 l
886.729 571.708 l
888.699 573.08 l
892.64 573.08 l
893.625 575.138 l
900.522 575.138 l
901.507 575.824 l
902.492 577.883 l
914.315 577.883 l
915.3 326.764 l
916.285 336.369 l
916.285 336.369 l
stroke
grestore
0 setlinecap
[6 6] 0 setdash
gsave
788.2 583.2 127.1 72.9 clipbox
127.125 81.5142 m
128.11 83.7496 l
129.095 86.4131 l
130.081 89.5823 l
131.066 93.2496 l
132.051 97.5501 l
133.036 102.38 l
134.022 107.808 l
135.992 120.192 l
137.962 134.358 l
139.933 149.788 l
141.903 166.259 l
144.859 192.896 l
147.815 222.869 l
155.696 307.296 l
157.667 325.848 l
159.637 343.4 l
162.593 367.102 l
164.563 380.987 l
166.534 393.934 l
167.519 400.774 l
173.43 435.821 l
177.371 456.419 l
180.327 469.983 l
184.268 485.229 l
185.253 488.749 l
190.179 504.196 l
191.164 506.243 l
194.12 513.08 l
195.105 515.041 l
196.09 516.66 l
197.076 518.004 l
198.061 519.928 l
199.046 520.748 l
201.016 523.113 l
202.002 524.141 l
202.987 525.952 l
203.972 526.672 l
204.957 526.693 l
205.942 527.615 l
206.928 528.782 l
208.898 529.74 l
209.883 529.826 l
210.869 530.323 l
211.854 531.098 l
212.839 531.603 l
213.824 532.363 l
214.809 532.178 l
215.795 532.802 l
217.765 533.183 l
220.721 534.565 l
221.706 535.254 l
223.676 536.025 l
225.647 536.259 l
226.632 536.696 l
227.617 537.279 l
228.603 537.693 l
232.543 538.316 l
233.529 538.143 l
234.514 538.13 l
235.499 538.397 l
236.484 538.177 l
237.47 538.207 l
238.455 537.995 l
239.44 538.312 l
240.425 537.959 l
241.41 538.12 l
242.396 538.974 l
243.381 539.272 l
244.366 539.861 l
245.351 540.076 l
248.307 539.776 l
249.292 540.099 l
250.277 539.866 l
251.263 539.98 l
252.248 540.602 l
254.218 540.948 l
255.203 541.542 l
256.189 541.409 l
259.144 542.065 l
260.13 541.597 l
261.115 541.763 l
262.1 541.73 l
263.085 542.082 l
264.07 541.662 l
265.056 542.322 l
266.041 542.76 l
268.011 542.923 l
268.997 542.845 l
269.982 542.554 l
270.967 542.747 l
271.952 542.689 l
272.937 542.998 l
273.923 542.838 l
274.908 543.19 l
275.893 543.041 l
276.878 542.722 l
278.849 542.98 l
279.834 543.089 l
280.819 543.042 l
281.804 543.169 l
282.79 543.161 l
283.775 542.908 l
284.76 543.429 l
285.745 543.328 l
286.73 543.452 l
287.716 543.735 l
288.701 543.472 l
290.671 543.329 l
291.657 543.741 l
295.597 544.137 l
296.583 544.119 l
298.553 543.564 l
299.538 543.893 l
300.524 543.957 l
301.509 543.809 l
303.479 544.183 l
304.464 543.949 l
305.45 543.975 l
306.435 544.449 l
307.42 544.762 l
308.405 544.34 l
309.39 544.647 l
310.376 544.123 l
311.361 543.744 l
312.346 543.935 l
313.331 543.689 l
314.317 543.326 l
315.302 543.714 l
316.287 543.943 l
317.272 544.736 l
318.257 544.819 l
319.243 545.431 l
320.228 545.242 l
321.213 545.432 l
323.184 545.173 l
324.169 75.416 l
326.139 76.3361 l
328.11 77.7193 l
329.095 78.6071 l
330.08 79.768 l
331.065 81.1561 l
332.051 82.848 l
333.036 84.7794 l
334.021 86.999 l
335.006 89.6529 l
335.991 92.783 l
337.962 100.544 l
338.947 105.221 l
340.917 116.145 l
342.888 129.69 l
344.858 145.316 l
346.829 162.539 l
351.755 208.854 l
353.725 227.202 l
356.681 252.696 l
358.651 268.452 l
361.607 288.985 l
363.578 301.377 l
365.548 312.641 l
371.459 341.556 l
374.415 354.796 l
380.326 378.434 l
384.267 392.472 l
386.238 399.892 l
393.134 421.93 l
395.105 428.026 l
398.06 435.13 l
399.045 437.772 l
400.031 439.827 l
401.016 441.607 l
402.986 445.917 l
404.957 449.004 l
405.942 450.907 l
406.927 452.215 l
407.912 453.855 l
408.898 455.092 l
410.868 458.161 l
411.853 459.332 l
412.838 460.182 l
415.794 463.476 l
419.735 466.117 l
420.72 466.678 l
421.705 467.55 l
423.676 468.806 l
424.661 469.826 l
425.646 470.4 l
426.632 470.122 l
427.617 470.614 l
428.602 470.63 l
429.587 471.01 l
431.558 472.369 l
434.513 472.747 l
435.498 473.263 l
436.484 473.982 l
437.469 474.132 l
438.454 474.396 l
439.439 475.273 l
440.425 475.584 l
441.41 476.254 l
444.365 477.438 l
445.351 477.603 l
446.336 478.267 l
448.306 478.368 l
449.292 478.92 l
450.277 479.284 l
452.247 480.446 l
453.232 480.354 l
454.218 480.68 l
455.203 480.461 l
456.188 481.28 l
458.159 482.321 l
462.099 483.082 l
463.085 484.086 l
464.07 484.226 l
466.04 483.9 l
467.025 483.926 l
469.981 484.765 l
470.966 484.906 l
472.937 484.652 l
473.922 484.715 l
474.907 485.253 l
475.892 485.231 l
476.878 485.836 l
477.863 486.233 l
478.848 486.396 l
479.833 485.833 l
481.804 486.568 l
483.774 486.197 l
484.759 486.313 l
485.745 486.783 l
486.73 487.418 l
487.715 487.286 l
489.686 488.002 l
490.671 488.028 l
491.656 487.81 l
493.626 487.974 l
494.612 487.524 l
496.582 487.411 l
497.567 487.592 l
498.552 488.117 l
499.538 487.56 l
501.508 487.812 l
502.493 488.128 l
503.479 488.291 l
505.449 488.193 l
507.419 488.533 l
508.405 488.809 l
509.39 488.767 l
510.375 489.109 l
511.36 488.998 l
512.346 489 l
513.331 488.593 l
514.316 489.017 l
515.301 488.902 l
516.286 489.551 l
517.272 489.6 l
518.257 490.117 l
519.242 490.292 l
520.227 490.047 l
521.213 87.3469 l
523.183 91.1274 l
525.153 95.4616 l
526.139 98.0119 l
528.109 104.161 l
529.094 107.675 l
531.065 116.015 l
532.05 120.744 l
533.035 126.209 l
535.006 138.918 l
536.976 153.817 l
538.946 170.653 l
541.902 198.835 l
553.725 316.47 l
555.695 334.301 l
561.606 382.912 l
563.577 396.819 l
566.533 415.897 l
569.488 432.795 l
571.459 441.911 l
576.385 462.924 l
577.37 466.318 l
581.311 477.868 l
583.281 483.065 l
584.267 485.823 l
586.237 490.266 l
588.207 494.215 l
589.193 495.722 l
591.163 499.361 l
592.148 501.44 l
595.104 506.342 l
596.089 507.601 l
598.06 509.227 l
599.045 510.349 l
600.03 510.654 l
601.015 511.623 l
602 512.151 l
602.986 512.859 l
603.971 514.14 l
605.941 515.32 l
606.927 516.267 l
607.912 516.721 l
608.897 517.321 l
609.882 517.733 l
610.867 518.549 l
611.853 519.095 l
612.838 519.164 l
613.823 520.426 l
614.808 521.09 l
615.793 521.549 l
616.779 521.834 l
619.734 524.413 l
620.72 524.883 l
621.705 525.77 l
623.675 526.664 l
624.66 527.43 l
627.616 527.297 l
628.601 527.609 l
629.587 527.565 l
631.557 528.055 l
636.483 530.227 l
637.468 530.105 l
639.439 530.639 l
640.424 530.669 l
641.409 531.026 l
642.394 531.109 l
643.38 531.511 l
644.365 531.585 l
645.35 531.463 l
646.335 532.184 l
647.321 532.145 l
648.306 532.742 l
651.261 533.764 l
652.247 533.811 l
653.232 533.004 l
654.217 533.288 l
656.187 533.042 l
657.173 533.314 l
659.143 533.399 l
661.114 534.162 l
662.099 534.403 l
663.084 534.331 l
664.069 534.893 l
665.054 534.404 l
666.04 534.876 l
667.025 535.072 l
668.01 535.081 l
668.995 535.38 l
670.966 534.886 l
673.921 534.983 l
674.907 534.661 l
676.877 534.294 l
678.848 534.794 l
679.833 534.798 l
680.818 535.544 l
681.803 535.942 l
682.788 536.025 l
683.774 535.977 l
684.759 536.046 l
685.744 535.733 l
686.729 535.577 l
687.714 535.817 l
688.7 536.379 l
689.685 536.224 l
690.67 536.846 l
691.655 536.585 l
692.641 537.107 l
694.611 536.585 l
695.596 536.055 l
696.581 536.088 l
697.567 535.566 l
698.552 536.009 l
701.508 535.515 l
702.493 535.629 l
703.478 536.205 l
704.463 536.446 l
705.448 536.109 l
706.434 536.558 l
707.419 535.911 l
708.404 536.255 l
709.389 535.902 l
710.375 536.232 l
711.36 536.355 l
712.345 535.863 l
713.33 536.052 l
714.315 536.088 l
715.301 536.286 l
716.286 535.936 l
717.271 535.967 l
718.256 81.8545 l
720.227 84.022 l
722.197 86.9009 l
723.182 88.6896 l
724.168 90.7452 l
725.153 93.1178 l
726.138 95.7841 l
728.108 102.313 l
730.079 110.801 l
731.064 115.78 l
733.035 127.616 l
735.005 141.602 l
737.961 166.292 l
741.902 202.937 l
745.842 240.755 l
749.783 275.644 l
752.739 299.282 l
754.709 313.045 l
756.68 326.223 l
759.635 343.755 l
765.547 374.434 l
769.488 392.528 l
771.458 400.794 l
772.443 404.684 l
773.429 408.041 l
775.399 415.49 l
777.369 422.466 l
778.355 426.246 l
779.34 429.215 l
781.31 435.529 l
782.295 438.815 l
783.281 441.226 l
784.266 444.484 l
785.251 446.746 l
787.222 451.719 l
791.162 460.499 l
792.148 462.313 l
795.103 468.6 l
797.074 471.803 l
798.059 472.553 l
799.044 473.742 l
800.029 475.222 l
801.015 476.18 l
802 477.525 l
805.941 481.84 l
806.926 482.328 l
807.911 483.071 l
808.896 483.63 l
809.882 484.501 l
810.867 485.162 l
811.852 485.305 l
812.837 485.911 l
814.808 486.358 l
817.763 487.778 l
818.749 487.909 l
819.734 488.29 l
820.719 489.016 l
821.704 489.599 l
822.689 489.708 l
824.66 490.293 l
825.645 490.32 l
826.63 490.503 l
827.616 490.895 l
828.601 491.119 l
829.586 491.636 l
830.571 491.758 l
832.542 492.528 l
833.527 492.172 l
834.512 492.181 l
835.497 492.397 l
836.483 492.355 l
837.468 492.781 l
838.453 493.003 l
839.438 493.513 l
840.423 493.627 l
841.409 493.873 l
842.394 493.373 l
843.379 493.679 l
844.364 494.135 l
845.349 494.166 l
846.335 494.403 l
847.32 494.825 l
848.305 494.794 l
850.276 494.94 l
851.261 495.334 l
852.246 495.999 l
853.231 496.214 l
854.216 496.128 l
855.202 496.354 l
856.187 496.833 l
858.157 496.5 l
859.143 496.908 l
860.128 496.899 l
861.113 497.352 l
862.098 497.034 l
863.083 497.341 l
864.069 498.099 l
865.054 497.998 l
866.039 498.773 l
868.01 498.821 l
868.995 499.29 l
869.98 499.439 l
870.965 499.432 l
872.936 499.186 l
875.891 499.705 l
876.876 500.319 l
877.862 500.35 l
878.847 500.5 l
879.832 500.427 l
880.817 500.233 l
881.803 500.602 l
882.788 500.655 l
883.773 500.539 l
884.758 501.319 l
885.743 501.667 l
886.729 501.7 l
887.714 502.043 l
888.699 502.183 l
889.684 502.655 l
890.67 502.589 l
891.655 502.235 l
892.64 502.399 l
893.625 502.24 l
894.61 502.354 l
895.596 502.767 l
896.581 502.276 l
897.566 502.9 l
898.551 502.757 l
899.537 502.745 l
900.522 502.331 l
901.507 502.528 l
902.492 502.865 l
903.477 503.079 l
905.448 503.023 l
906.433 503.163 l
907.418 503.502 l
908.403 503.695 l
910.374 504.548 l
912.344 504.769 l
913.33 504.935 l
914.315 504.963 l
915.3 91.1528 l
916.285 92.8736 l
916.285 92.8736 l
stroke
grestore
0.500 setlinewidth
[] 0 setdash
gsave
/o {
gsave
newpath
translate
0.5 setlinewidth
1 setlinejoin
0 setlinecap
0 0 m
0 4 l
gsave
0.000 setgray
fill
grestore
stroke
grestore
} bind def
127.125 72.9 o
grestore
gsave
/o {
gsave
newpath
translate
0.5 setlinewidth
1 setlinejoin
0 setlinecap
0 0 m
0 -4 l
gsave
0.000 setgray
fill
grestore
stroke
grestore
} bind def
127.125 656.1 o
grestore
/DejaVuSans findfont
20.000 scalefont
setfont
gsave
122.085938 53.696875 translate
0.000000 rotate
0.000000 0.000000 m /zero glyphshow
grestore
gsave
/o {
gsave
newpath
translate
0.5 setlinewidth
1 setlinejoin
0 setlinecap
0 0 m
0 4 l
gsave
0.000 setgray
fill
grestore
stroke
grestore
} bind def
225.647 72.9 o
grestore
gsave
/o {
gsave
newpath
translate
0.5 setlinewidth
1 setlinejoin
0 setlinecap
0 0 m
0 -4 l
gsave
0.000 setgray
fill
grestore
stroke
grestore
} bind def
225.647 656.1 o
grestore
gsave
208.334375 53.696875 translate
0.000000 rotate
0.000000 0.000000 m /one glyphshow
12.724609 0.000000 m /zero glyphshow
25.449219 0.000000 m /zero glyphshow
grestore
gsave
/o {
gsave
newpath
translate
0.5 setlinewidth
1 setlinejoin
0 setlinecap
0 0 m
0 4 l
gsave
0.000 setgray
fill
grestore
stroke
grestore
} bind def
324.169 72.9 o
grestore
gsave
/o {
gsave
newpath
translate
0.5 setlinewidth
1 setlinejoin
0 setlinecap
0 0 m
0 -4 l
gsave
0.000 setgray
fill
grestore
stroke
grestore
} bind def
324.169 656.1 o
grestore
gsave
306.489063 53.696875 translate
0.000000 rotate
0.000000 0.000000 m /two glyphshow
12.724609 0.000000 m /zero glyphshow
25.449219 0.000000 m /zero glyphshow
grestore
gsave
/o {
gsave
newpath
translate
0.5 setlinewidth
1 setlinejoin
0 setlinecap
0 0 m
0 4 l
gsave
0.000 setgray
fill
grestore
stroke
grestore
} bind def
422.691 72.9 o
grestore
gsave
/o {
gsave
newpath
translate
0.5 setlinewidth
1 setlinejoin
0 setlinecap
0 0 m
0 -4 l
gsave
0.000 setgray
fill
grestore
stroke
grestore
} bind def
422.691 656.1 o
grestore
gsave
405.042188 53.696875 translate
0.000000 rotate
0.000000 0.000000 m /three glyphshow
12.724609 0.000000 m /zero glyphshow
25.449219 0.000000 m /zero glyphshow
grestore
gsave
/o {
gsave
newpath
translate
0.5 setlinewidth
1 setlinejoin
0 setlinecap
0 0 m
0 4 l
gsave
0.000 setgray
fill
grestore
stroke
grestore
} bind def
521.213 72.9 o
grestore
gsave
/o {
gsave
newpath
translate
0.5 setlinewidth
1 setlinejoin
0 setlinecap
0 0 m
0 -4 l
gsave
0.000 setgray
fill
grestore
stroke
grestore
} bind def
521.213 656.1 o
grestore
gsave
503.290625 53.696875 translate
0.000000 rotate
0.000000 0.000000 m /four glyphshow
12.724609 0.000000 m /zero glyphshow
25.449219 0.000000 m /zero glyphshow
grestore
gsave
/o {
gsave
newpath
translate
0.5 setlinewidth
1 setlinejoin
0 setlinecap
0 0 m
0 4 l
gsave
0.000 setgray
fill
grestore
stroke
grestore
} bind def
619.734 72.9 o
grestore
gsave
/o {
gsave
newpath
translate
0.5 setlinewidth
1 setlinejoin
0 setlinecap
0 0 m
0 -4 l
gsave
0.000 setgray
fill
grestore
stroke
grestore
} bind def
619.734 656.1 o
grestore
gsave
602.093750 53.696875 translate
0.000000 rotate
0.000000 0.000000 m /five glyphshow
12.724609 0.000000 m /zero glyphshow
25.449219 0.000000 m /zero glyphshow
grestore
gsave
/o {
gsave
newpath
translate
0.5 setlinewidth
1 setlinejoin
0 setlinecap
0 0 m
0 4 l
gsave
0.000 setgray
fill
grestore
stroke
grestore
} bind def
718.256 72.9 o
grestore
gsave
/o {
gsave
newpath
translate
0.5 setlinewidth
1 setlinejoin
0 setlinecap
0 0 m
0 -4 l
gsave
0.000 setgray
fill
grestore
stroke
grestore
} bind def
718.256 656.1 o
grestore
gsave
700.537500 53.696875 translate
0.000000 rotate
0.000000 0.000000 m /six glyphshow
12.724609 0.000000 m /zero glyphshow
25.449219 0.000000 m /zero glyphshow
grestore
gsave
/o {
gsave
newpath
translate
0.5 setlinewidth
1 setlinejoin
0 setlinecap
0 0 m
0 4 l
gsave
0.000 setgray
fill
grestore
stroke
grestore
} bind def
816.778 72.9 o
grestore
gsave
/o {
gsave
newpath
translate
0.5 setlinewidth
1 setlinejoin
0 setlinecap
0 0 m
0 -4 l
gsave
0.000 setgray
fill
grestore
stroke
grestore
} bind def
816.778 656.1 o
grestore
gsave
799.184375 53.696875 translate
0.000000 rotate
0.000000 0.000000 m /seven glyphshow
12.724609 0.000000 m /zero glyphshow
25.449219 0.000000 m /zero glyphshow
grestore
gsave
/o {
gsave
newpath
translate
0.5 setlinewidth
1 setlinejoin
0 setlinecap
0 0 m
0 4 l
gsave
0.000 setgray
fill
grestore
stroke
grestore
} bind def
915.3 72.9 o
grestore
gsave
/o {
gsave
newpath
translate
0.5 setlinewidth
1 setlinejoin
0 setlinecap
0 0 m
0 -4 l
gsave
0.000 setgray
fill
grestore
stroke
grestore
} bind def
915.3 656.1 o
grestore
gsave
897.565625 53.696875 translate
0.000000 rotate
0.000000 0.000000 m /eight glyphshow
12.724609 0.000000 m /zero glyphshow
25.449219 0.000000 m /zero glyphshow
grestore
gsave
466.829688 29.337500 translate
0.000000 rotate
0.000000 0.000000 m /G glyphshow
15.498047 0.000000 m /e glyphshow
27.802734 0.000000 m /n glyphshow
40.478516 0.000000 m /e glyphshow
52.783203 0.000000 m /r glyphshow
61.005859 0.000000 m /a glyphshow
73.261719 0.000000 m /t glyphshow
81.103516 0.000000 m /i glyphshow
86.660156 0.000000 m /o glyphshow
98.896484 0.000000 m /n glyphshow
grestore
gsave
/o {
gsave
newpath
translate
0.5 setlinewidth
1 setlinejoin
0 setlinecap
0 0 m
4 0 l
gsave
0.000 setgray
fill
grestore
stroke
grestore
} bind def
127.125 72.9 o
grestore
gsave
/o {
gsave
newpath
translate
0.5 setlinewidth
1 setlinejoin
0 setlinecap
0 0 m
-4 0 l
gsave
0.000 setgray
fill
grestore
stroke
grestore
} bind def
915.3 72.9 o
grestore
gsave
113.046875 67.376562 translate
0.000000 rotate
0.000000 0.000000 m /zero glyphshow
grestore
gsave
/o {
gsave
newpath
translate
0.5 setlinewidth
1 setlinejoin
0 setlinecap
0 0 m
4 0 l
gsave
0.000 setgray
fill
grestore
stroke
grestore
} bind def
127.125 141.512 o
grestore
gsave
/o {
gsave
newpath
translate
0.5 setlinewidth
1 setlinejoin
0 setlinecap
0 0 m
-4 0 l
gsave
0.000 setgray
fill
grestore
stroke
grestore
} bind def
915.3 141.512 o
grestore
gsave
114.453125 135.988327 translate
0.000000 rotate
0.000000 0.000000 m /one glyphshow
grestore
gsave
/o {
gsave
newpath
translate
0.5 setlinewidth
1 setlinejoin
0 setlinecap
0 0 m
4 0 l
gsave
0.000 setgray
fill
grestore
stroke
grestore
} bind def
127.125 210.124 o
grestore
gsave
/o {
gsave
newpath
translate
0.5 setlinewidth
1 setlinejoin
0 setlinecap
0 0 m
-4 0 l
gsave
0.000 setgray
fill
grestore
stroke
grestore
} bind def
915.3 210.124 o
grestore
gsave
113.875000 204.600092 translate
0.000000 rotate
0.000000 0.000000 m /two glyphshow
grestore
gsave
/o {
gsave
newpath
translate
0.5 setlinewidth
1 setlinejoin
0 setlinecap
0 0 m
4 0 l
gsave
0.000 setgray
fill
grestore
stroke
grestore
} bind def
127.125 278.735 o
grestore
gsave
/o {
gsave
newpath
translate
0.5 setlinewidth
1 setlinejoin
0 setlinecap
0 0 m
-4 0 l
gsave
0.000 setgray
fill
grestore
stroke
grestore
} bind def
915.3 278.735 o
grestore
gsave
113.531250 273.211857 translate
0.000000 rotate
0.000000 0.000000 m /three glyphshow
grestore
gsave
/o {
gsave
newpath
translate
0.5 setlinewidth
1 setlinejoin
0 setlinecap
0 0 m
4 0 l
gsave
0.000 setgray
fill
grestore
stroke
grestore
} bind def
127.125 347.347 o
grestore
gsave
/o {
gsave
newpath
translate
0.5 setlinewidth
1 setlinejoin
0 setlinecap
0 0 m
-4 0 l
gsave
0.000 setgray
fill
grestore
stroke
grestore
} bind def
915.3 347.347 o
grestore
gsave
112.500000 341.823621 translate
0.000000 rotate
0.000000 0.000000 m /four glyphshow
grestore
gsave
/o {
gsave
newpath
translate
0.5 setlinewidth
1 setlinejoin
0 setlinecap
0 0 m
4 0 l
gsave
0.000 setgray
fill
grestore
stroke
grestore
} bind def
127.125 415.959 o
grestore
gsave
/o {
gsave
newpath
translate
0.5 setlinewidth
1 setlinejoin
0 setlinecap
0 0 m
-4 0 l
gsave
0.000 setgray
fill
grestore
stroke
grestore
} bind def
915.3 415.959 o
grestore
gsave
113.687500 410.435386 translate
0.000000 rotate
0.000000 0.000000 m /five glyphshow
grestore
gsave
/o {
gsave
newpath
translate
0.5 setlinewidth
1 setlinejoin
0 setlinecap
0 0 m
4 0 l
gsave
0.000 setgray
fill
grestore
stroke
grestore
} bind def
127.125 484.571 o
grestore
gsave
/o {
gsave
newpath
translate
0.5 setlinewidth
1 setlinejoin
0 setlinecap
0 0 m
-4 0 l
gsave
0.000 setgray
fill
grestore
stroke
grestore
} bind def
915.3 484.571 o
grestore
gsave
113.046875 479.047151 translate
0.000000 rotate
0.000000 0.000000 m /six glyphshow
grestore
gsave
/o {
gsave
newpath
translate
0.5 setlinewidth
1 setlinejoin
0 setlinecap
0 0 m
4 0 l
gsave
0.000 setgray
fill
grestore
stroke
grestore
} bind def
127.125 553.182 o
grestore
gsave
/o {
gsave
newpath
translate
0.5 setlinewidth
1 setlinejoin
0 setlinecap
0 0 m
-4 0 l
gsave
0.000 setgray
fill
grestore
stroke
grestore
} bind def
915.3 553.182 o
grestore
gsave
113.750000 547.658915 translate
0.000000 rotate
0.000000 0.000000 m /seven glyphshow
grestore
gsave
/o {
gsave
newpath
translate
0.5 setlinewidth
1 setlinejoin
0 setlinecap
0 0 m
4 0 l
gsave
0.000 setgray
fill
grestore
stroke
grestore
} bind def
127.125 621.794 o
grestore
gsave
/o {
gsave
newpath
translate
0.5 setlinewidth
1 setlinejoin
0 setlinecap
0 0 m
-4 0 l
gsave
0.000 setgray
fill
grestore
stroke
grestore
} bind def
915.3 621.794 o
grestore
gsave
113.125000 616.270680 translate
0.000000 rotate
0.000000 0.000000 m /eight glyphshow
grestore
gsave
103.343750 331.359375 translate
90.000000 rotate
0.000000 0.000000 m /F glyphshow
10.003906 0.000000 m /i glyphshow
15.560547 0.000000 m /t glyphshow
23.402344 0.000000 m /n glyphshow
36.078125 0.000000 m /e glyphshow
48.382812 0.000000 m /s glyphshow
58.802734 0.000000 m /s glyphshow
grestore
1.000 setlinewidth
gsave
127.125 656.1 m
915.3 656.1 l
stroke
grestore
gsave
915.3 72.9 m
915.3 656.1 l
stroke
grestore
gsave
127.125 72.9 m
915.3 72.9 l
stroke
grestore
gsave
127.125 72.9 m
127.125 656.1 l
stroke
grestore
gsave
700.197 84.9 m
903.3 84.9 l
903.3 162.569 l
700.197 162.569 l
700.197 84.9 l
cl
gsave
1.000 setgray
fill
grestore
stroke
grestore
2 setlinecap
gsave
716.997 143.134 m
750.597 143.134 l
stroke
grestore
/DejaVuSans findfont
24.000 scalefont
setfont
gsave
776.996875 134.734375 translate
0.000000 rotate
0.000000 0.000000 m /m glyphshow
23.378906 0.000000 m /a glyphshow
38.085938 0.000000 m /x glyphshow
52.289062 0.000000 m /i glyphshow
58.957031 0.000000 m /m glyphshow
82.335938 0.000000 m /u glyphshow
97.546875 0.000000 m /m glyphshow
grestore
0 setlinecap
[6 6] 0 setdash
gsave
716.997 107.9 m
750.597 107.9 l
stroke
grestore
gsave
776.996875 99.500000 translate
0.000000 rotate
0.000000 0.000000 m /a glyphshow
14.707031 0.000000 m /v glyphshow
28.910156 0.000000 m /e glyphshow
43.675781 0.000000 m /r glyphshow
53.542969 0.000000 m /a glyphshow
68.250000 0.000000 m /g glyphshow
83.484375 0.000000 m /e glyphshow
grestore

end
showpage
